(module WT12 (layer F.Cu) (tedit 5E6C9F8A)
  (fp_text reference REF** (at -5 8) (layer F.SilkS)
    (effects (font (size 1 1) (thickness 0.15)))
  )
  (fp_text value WT12 (at -5.5 6) (layer F.Fab)
    (effects (font (size 1 1) (thickness 0.15)))
  )
  (fp_line (start -9 2) (end 16.6 2) (layer F.SilkS) (width 0.12))
  (fp_line (start -9 16) (end 16.6 16) (layer F.SilkS) (width 0.12))
  (fp_line (start -9 16) (end -9 2) (layer F.SilkS) (width 0.12))
  (fp_line (start 16.6 2) (end 16.6 16) (layer F.SilkS) (width 0.12))
  (fp_line (start 16.6 16) (end 16.5 16) (layer F.SilkS) (width 0.12))
  (fp_circle (center 15.1 3.5) (end 15.807107 3.5) (layer F.SilkS) (width 0.12))
  (pad 14 smd roundrect (at -8 2) (size 0.8 1.4) (drill (offset 0 0.2)) (layers F.Cu F.Paste F.Mask) (roundrect_rratio 0.25))
  (pad 13 smd roundrect (at -6.5 2) (size 0.8 1.7) (drill (offset 0 0.35)) (layers F.Cu F.Paste F.Mask) (roundrect_rratio 0.25))
  (pad 12 smd roundrect (at -5 2) (size 0.8 1.7) (drill (offset 0 0.35)) (layers F.Cu F.Paste F.Mask) (roundrect_rratio 0.25))
  (pad 11 smd roundrect (at -3.5 2) (size 0.8 1.7) (drill (offset 0 0.35)) (layers F.Cu F.Paste F.Mask) (roundrect_rratio 0.25))
  (pad 10 smd roundrect (at -2 2) (size 0.8 1.7) (drill (offset 0 0.35)) (layers F.Cu F.Paste F.Mask) (roundrect_rratio 0.25))
  (pad 9 smd roundrect (at -0.5 2) (size 0.8 1.7) (drill (offset 0 0.35)) (layers F.Cu F.Paste F.Mask) (roundrect_rratio 0.25))
  (pad 8 smd roundrect (at 1 2) (size 0.8 1.7) (drill (offset 0 0.35)) (layers F.Cu F.Paste F.Mask) (roundrect_rratio 0.25))
  (pad 7 smd roundrect (at 2.5 2) (size 0.8 1.7) (drill (offset 0 0.35)) (layers F.Cu F.Paste F.Mask) (roundrect_rratio 0.25))
  (pad 6 smd roundrect (at 4 2) (size 0.8 1.7) (drill (offset 0 0.35)) (layers F.Cu F.Paste F.Mask) (roundrect_rratio 0.25))
  (pad 5 smd roundrect (at 5.5 2) (size 0.8 1.7) (drill (offset 0 0.35)) (layers F.Cu F.Paste F.Mask) (roundrect_rratio 0.25))
  (pad 4 smd roundrect (at 7 2) (size 0.8 1.7) (drill (offset 0 0.35)) (layers F.Cu F.Paste F.Mask) (roundrect_rratio 0.25))
  (pad 3 smd roundrect (at 8.5 2) (size 0.8 1.7) (drill (offset 0 0.35)) (layers F.Cu F.Paste F.Mask) (roundrect_rratio 0.25))
  (pad 2 smd roundrect (at 10 2) (size 0.8 1.7) (drill (offset 0 0.35)) (layers F.Cu F.Paste F.Mask) (roundrect_rratio 0.25))
  (pad 1 smd roundrect (at 11.5 2) (size 0.8 1.4) (drill (offset 0 0.2)) (layers F.Cu F.Paste F.Mask) (roundrect_rratio 0.25))
  (pad 18 smd roundrect (at -3.5 16 180) (size 0.8 1.7) (drill (offset 0 0.35)) (layers F.Cu F.Paste F.Mask) (roundrect_rratio 0.25))
  (pad 17 smd roundrect (at -5 16 180) (size 0.8 1.7) (drill (offset 0 0.35)) (layers F.Cu F.Paste F.Mask) (roundrect_rratio 0.25))
  (pad 25 smd roundrect (at 7 16 180) (size 0.8 1.7) (drill (offset 0 0.35)) (layers F.Cu F.Paste F.Mask) (roundrect_rratio 0.25))
  (pad 27 smd roundrect (at 10 16 180) (size 0.8 1.7) (drill (offset 0 0.35)) (layers F.Cu F.Paste F.Mask) (roundrect_rratio 0.25))
  (pad 23 smd roundrect (at 4 16 180) (size 0.8 1.7) (drill (offset 0 0.35)) (layers F.Cu F.Paste F.Mask) (roundrect_rratio 0.25))
  (pad 19 smd roundrect (at -2 16 180) (size 0.8 1.7) (drill (offset 0 0.35)) (layers F.Cu F.Paste F.Mask) (roundrect_rratio 0.25))
  (pad 15 smd roundrect (at -8 16 180) (size 0.8 1.4) (drill (offset 0 0.2)) (layers F.Cu F.Paste F.Mask) (roundrect_rratio 0.25))
  (pad 21 smd roundrect (at 1 16 180) (size 0.8 1.7) (drill (offset 0 0.35)) (layers F.Cu F.Paste F.Mask) (roundrect_rratio 0.25))
  (pad 22 smd roundrect (at 2.5 16 180) (size 0.8 1.7) (drill (offset 0 0.35)) (layers F.Cu F.Paste F.Mask) (roundrect_rratio 0.25))
  (pad 28 smd roundrect (at 11.5 16 180) (size 0.8 1.4) (drill (offset 0 0.2)) (layers F.Cu F.Paste F.Mask) (roundrect_rratio 0.25))
  (pad 20 smd roundrect (at -0.5 16 180) (size 0.8 1.7) (drill (offset 0 0.35)) (layers F.Cu F.Paste F.Mask) (roundrect_rratio 0.25))
  (pad 26 smd roundrect (at 8.5 16 180) (size 0.8 1.7) (drill (offset 0 0.35)) (layers F.Cu F.Paste F.Mask) (roundrect_rratio 0.25))
  (pad 16 smd roundrect (at -6.5 16 180) (size 0.8 1.7) (drill (offset 0 0.35)) (layers F.Cu F.Paste F.Mask) (roundrect_rratio 0.25))
  (pad 24 smd roundrect (at 5.5 16 180) (size 0.8 1.7) (drill (offset 0 0.35)) (layers F.Cu F.Paste F.Mask) (roundrect_rratio 0.25))
  (pad 30 smd roundrect (at 16.6 9 270) (size 0.8 1.7) (drill (offset 0 0.35)) (layers F.Cu F.Paste F.Mask) (roundrect_rratio 0.25))
  (pad 31 smd roundrect (at 16.6 7.5 270) (size 0.8 1.4) (drill (offset 0 0.2)) (layers F.Cu F.Paste F.Mask) (roundrect_rratio 0.25))
  (pad 29 smd roundrect (at 16.6 10.5 270) (size 0.8 1.4) (drill (offset 0 0.2)) (layers F.Cu F.Paste F.Mask) (roundrect_rratio 0.25))
)
