EESchema Schematic File Version 4
EELAYER 30 0
EELAYER END
$Descr A3 16535 11693
encoding utf-8
Sheet 1 1
Title ""
Date ""
Rev ""
Comp ""
Comment1 ""
Comment2 ""
Comment3 ""
Comment4 ""
$EndDescr
$Comp
L Connector:Conn_01x04_Male J4
U 1 1 5CC4AEE2
P 1500 1000
F 0 "J4" H 1608 1281 50  0000 C CNN
F 1 "USB" H 1608 1190 50  0000 C CNN
F 2 "Connector_PinHeader_2.54mm:PinHeader_1x04_P2.54mm_Vertical" H 1500 1000 50  0001 C CNN
F 3 "~" H 1500 1000 50  0001 C CNN
	1    1500 1000
	-1   0    0    1   
$EndComp
$Comp
L Device:Fuse_Small F1
U 1 1 5CC50B5E
P 1150 800
F 0 "F1" H 1150 985 50  0000 C CNN
F 1 "1A" H 1150 894 50  0000 C CNN
F 2 "Fuse:Fuse_1206_3216Metric" H 1150 800 50  0001 C CNN
F 3 "~" H 1150 800 50  0001 C CNN
	1    1150 800 
	1    0    0    -1  
$EndComp
Text GLabel 13200 7750 0    50   Input ~ 0
SRDATA_B
Text GLabel 10200 6800 0    50   Input ~ 0
KSDMUXA
Text GLabel 10200 7700 0    50   Input ~ 0
KSDMUXB
Text GLabel 10200 8600 0    50   Input ~ 0
KSDMUXC
$Comp
L power:GND #PWR022
U 1 1 5CC4F55C
P 13100 9000
F 0 "#PWR022" H 13100 8750 50  0001 C CNN
F 1 "GND" H 13105 8827 50  0000 C CNN
F 2 "" H 13100 9000 50  0001 C CNN
F 3 "" H 13100 9000 50  0001 C CNN
	1    13100 9000
	1    0    0    -1  
$EndComp
Wire Wire Line
	13100 9000 13100 8900
Wire Wire Line
	13100 8900 13200 8900
Text GLabel 13200 8600 0    50   Input ~ 0
SRCLK
$Comp
L power:+5V #PWR025
U 1 1 5CC50185
P 14750 7350
F 0 "#PWR025" H 14750 7200 50  0001 C CNN
F 1 "+5V" H 14765 7523 50  0000 C CNN
F 2 "" H 14750 7350 50  0001 C CNN
F 3 "" H 14750 7350 50  0001 C CNN
	1    14750 7350
	-1   0    0    -1  
$EndComp
Wire Wire Line
	14750 7350 14750 7400
Wire Wire Line
	14750 7400 14800 7400
Text GLabel 14800 7500 0    50   Input ~ 0
KD18
Text GLabel 14800 7600 0    50   Input ~ 0
KD17
Text GLabel 14800 7700 0    50   Input ~ 0
KD16
Text GLabel 14800 7800 0    50   Input ~ 0
KD15
Text GLabel 14800 7900 0    50   Input ~ 0
KD14
Text GLabel 14800 8000 0    50   Input ~ 0
KD13
Text GLabel 14800 8100 0    50   Input ~ 0
KD12
Text GLabel 14800 8200 0    50   Input ~ 0
KD11
Text GLabel 14800 8600 0    50   Input ~ 0
KD03
Text GLabel 14800 8700 0    50   Input ~ 0
KD04
Text GLabel 14800 8800 0    50   Input ~ 0
KD05
Text GLabel 14800 8900 0    50   Input ~ 0
KD06
Text GLabel 14800 9000 0    50   Input ~ 0
KD07
Text GLabel 14800 9100 0    50   Input ~ 0
KD08
Text GLabel 14800 9200 0    50   Input ~ 0
KD09
Text GLabel 14800 9300 0    50   Input ~ 0
KD10
$Comp
L power:GND #PWR09
U 1 1 5CC665A0
P 2550 6350
F 0 "#PWR09" H 2550 6100 50  0001 C CNN
F 1 "GND" H 2555 6177 50  0000 C CNN
F 2 "" H 2550 6350 50  0001 C CNN
F 3 "" H 2550 6350 50  0001 C CNN
	1    2550 6350
	1    0    0    -1  
$EndComp
$Comp
L power:GND #PWR02
U 1 1 5CC6B7C4
P 1100 1200
F 0 "#PWR02" H 1100 950 50  0001 C CNN
F 1 "GND" H 1105 1027 50  0000 C CNN
F 2 "" H 1100 1200 50  0001 C CNN
F 3 "" H 1100 1200 50  0001 C CNN
	1    1100 1200
	1    0    0    -1  
$EndComp
Wire Wire Line
	1100 1200 1100 1100
Wire Wire Line
	1100 1100 1300 1100
Wire Wire Line
	1250 800  1300 800 
Wire Wire Line
	950  800  1050 800 
Text GLabel 1350 5850 0    50   Input ~ 0
KD03
Text GLabel 1350 5750 0    50   Input ~ 0
KD04
Text GLabel 1350 5650 0    50   Input ~ 0
KD05
Text GLabel 1350 5550 0    50   Input ~ 0
KD06
Text GLabel 1350 5450 0    50   Input ~ 0
KD07
Text GLabel 1350 5350 0    50   Input ~ 0
KD08
Text GLabel 1350 5250 0    50   Input ~ 0
KD09
Text GLabel 1350 5150 0    50   Input ~ 0
KD10
Text GLabel 1350 5950 0    50   Input ~ 0
KD11
Text GLabel 1350 6050 0    50   Input ~ 0
KD12
Text GLabel 1350 4550 0    50   Input ~ 0
KD13
Text GLabel 1350 4650 0    50   Input ~ 0
KD14
Text GLabel 1350 4750 0    50   Input ~ 0
KD15
Text GLabel 1350 4850 0    50   Input ~ 0
KD16
Text GLabel 1350 4950 0    50   Input ~ 0
KD17
Text GLabel 1350 5050 0    50   Input ~ 0
KD18
Text GLabel 10200 2750 2    50   Input ~ 0
SPI_SCK
Text GLabel 10200 2850 2    50   Input ~ 0
SPI_MOSI
Text GLabel 2050 1600 2    50   Input ~ 0
SPI_SCK
Text GLabel 2050 1800 2    50   Input ~ 0
SPI_MOSI
Text GLabel 2050 1700 2    50   Input ~ 0
SPI_MISO
$Comp
L power:GND #PWR03
U 1 1 5CCAD2DA
P 2250 2000
F 0 "#PWR03" H 2250 1750 50  0001 C CNN
F 1 "GND" H 2255 1827 50  0000 C CNN
F 2 "" H 2250 2000 50  0001 C CNN
F 3 "" H 2250 2000 50  0001 C CNN
	1    2250 2000
	1    0    0    -1  
$EndComp
Wire Wire Line
	2250 2000 2250 1900
Wire Wire Line
	2250 1900 2050 1900
$Comp
L power:GND #PWR014
U 1 1 5CCB1C49
P 14750 5700
F 0 "#PWR014" H 14750 5450 50  0001 C CNN
F 1 "GND" H 14755 5527 50  0000 C CNN
F 2 "" H 14750 5700 50  0001 C CNN
F 3 "" H 14750 5700 50  0001 C CNN
	1    14750 5700
	1    0    0    -1  
$EndComp
Text GLabel 14000 3450 1    50   Input ~ 0
KD11
Text GLabel 14100 3450 1    50   Input ~ 0
KD12
Text GLabel 14200 3450 1    50   Input ~ 0
KD13
Text GLabel 14300 3450 1    50   Input ~ 0
KD14
Text GLabel 13250 3450 1    50   Input ~ 0
KD15
Text GLabel 13350 3450 1    50   Input ~ 0
KD16
Text GLabel 13450 3450 1    50   Input ~ 0
KD17
Text GLabel 13550 3450 1    50   Input ~ 0
KD18
Text GLabel 15700 3450 1    50   Input ~ 0
KD03
Text GLabel 15600 3450 1    50   Input ~ 0
KD04
Text GLabel 15500 3450 1    50   Input ~ 0
KD05
Text GLabel 15400 3450 1    50   Input ~ 0
KD06
Text GLabel 15000 3450 1    50   Input ~ 0
KD07
Text GLabel 14900 3450 1    50   Input ~ 0
KD08
Text GLabel 14800 3450 1    50   Input ~ 0
KD09
Text GLabel 14700 3450 1    50   Input ~ 0
KD10
$Comp
L Device:R_Pack04 RN1
U 1 1 5CCE6FFB
P 13350 3650
F 0 "RN1" H 13538 3696 50  0000 L CNN
F 1 "10k" H 13538 3605 50  0000 L CNN
F 2 "Resistor_SMD:R_Array_Convex_4x0603" V 13625 3650 50  0001 C CNN
F 3 "~" H 13350 3650 50  0001 C CNN
	1    13350 3650
	-1   0    0    1   
$EndComp
$Comp
L Device:R_Pack04 RN2
U 1 1 5CCE7B59
P 14100 3650
F 0 "RN2" H 14288 3696 50  0000 L CNN
F 1 "10k" H 14288 3605 50  0000 L CNN
F 2 "Resistor_SMD:R_Array_Convex_4x0603" V 14375 3650 50  0001 C CNN
F 3 "~" H 14100 3650 50  0001 C CNN
	1    14100 3650
	-1   0    0    1   
$EndComp
$Comp
L Device:R_Pack04 RN3
U 1 1 5CCE7D31
P 14800 3650
F 0 "RN3" H 14988 3696 50  0000 L CNN
F 1 "10k" H 14988 3605 50  0000 L CNN
F 2 "Resistor_SMD:R_Array_Convex_4x0603" V 15075 3650 50  0001 C CNN
F 3 "~" H 14800 3650 50  0001 C CNN
	1    14800 3650
	-1   0    0    1   
$EndComp
$Comp
L Device:R_Pack04 RN4
U 1 1 5CCE8227
P 15500 3650
F 0 "RN4" H 15688 3696 50  0000 L CNN
F 1 "10k" H 15688 3605 50  0000 L CNN
F 2 "Resistor_SMD:R_Array_Convex_4x0603" V 15775 3650 50  0001 C CNN
F 3 "~" H 15500 3650 50  0001 C CNN
	1    15500 3650
	-1   0    0    1   
$EndComp
Connection ~ 14000 3850
Wire Wire Line
	14000 3850 14100 3850
Connection ~ 14100 3850
Wire Wire Line
	14100 3850 14200 3850
Connection ~ 14200 3850
Wire Wire Line
	14200 3850 14300 3850
Connection ~ 14300 3850
Wire Wire Line
	14300 3850 14700 3850
Connection ~ 14700 3850
Wire Wire Line
	14700 3850 14800 3850
Connection ~ 14800 3850
Wire Wire Line
	14800 3850 14900 3850
Connection ~ 14900 3850
Wire Wire Line
	14900 3850 15000 3850
Connection ~ 15000 3850
Wire Wire Line
	15000 3850 15400 3850
Connection ~ 15400 3850
Wire Wire Line
	15400 3850 15500 3850
Connection ~ 15500 3850
Wire Wire Line
	15500 3850 15600 3850
Connection ~ 15600 3850
Wire Wire Line
	15600 3850 15700 3850
$Comp
L power:GND #PWR010
U 1 1 5CCF66E4
P 15700 4000
F 0 "#PWR010" H 15700 3750 50  0001 C CNN
F 1 "GND" H 15705 3827 50  0000 C CNN
F 2 "" H 15700 4000 50  0001 C CNN
F 3 "" H 15700 4000 50  0001 C CNN
	1    15700 4000
	1    0    0    -1  
$EndComp
Wire Wire Line
	15700 4000 15700 3850
Connection ~ 15700 3850
Text GLabel 3750 2500 2    50   Input ~ 0
RGB_CTRL
Text GLabel 2350 1200 2    50   Input ~ 0
~RESET~
$Comp
L power:GND #PWR023
U 1 1 5E673C53
P 9800 3150
F 0 "#PWR023" H 9800 2900 50  0001 C CNN
F 1 "GND" H 9805 2977 50  0000 C CNN
F 2 "" H 9800 3150 50  0001 C CNN
F 3 "" H 9800 3150 50  0001 C CNN
	1    9800 3150
	1    0    0    -1  
$EndComp
Text GLabel 2750 5150 2    50   Input ~ 0
SCL
Text GLabel 2750 5250 2    50   Input ~ 0
SDA
Text GLabel 10200 2950 2    50   Input ~ 0
SPI_MISO
Text GLabel 2750 5850 2    50   Input ~ 0
SPI_SCK
Text GLabel 2750 5950 2    50   Input ~ 0
SPI_MISO
Text GLabel 950  800  0    50   Input ~ 0
VBUS5
Text GLabel 9700 4750 0    50   Input ~ 0
RXD
Text GLabel 9700 4650 0    50   Input ~ 0
TXD
$Comp
L Device:R_Small R3
U 1 1 5E7D2180
P 2950 5650
F 0 "R3" V 2754 5650 50  0000 C CNN
F 1 "1k" V 2845 5650 50  0000 C CNN
F 2 "Resistor_SMD:R_0805_2012Metric_Pad1.15x1.40mm_HandSolder" H 2950 5650 50  0001 C CNN
F 3 "~" H 2950 5650 50  0001 C CNN
	1    2950 5650
	0    1    1    0   
$EndComp
$Comp
L Device:R_Small R2
U 1 1 5E7D2766
P 2950 5550
F 0 "R2" V 2754 5550 50  0000 C CNN
F 1 "1k" V 2845 5550 50  0000 C CNN
F 2 "Resistor_SMD:R_0805_2012Metric_Pad1.15x1.40mm_HandSolder" H 2950 5550 50  0001 C CNN
F 3 "~" H 2950 5550 50  0001 C CNN
	1    2950 5550
	0    1    1    0   
$EndComp
$Comp
L Connector:TestPoint TP1
U 1 1 5E7D381C
P 3200 5550
F 0 "TP1" V 3154 5738 50  0000 L CNN
F 1 "Led2" V 3245 5738 50  0000 L CNN
F 2 "TestPoint:TestPoint_Pad_1.5x1.5mm" H 3400 5550 50  0001 C CNN
F 3 "~" H 3400 5550 50  0001 C CNN
	1    3200 5550
	0    1    1    0   
$EndComp
$Comp
L Connector:TestPoint TP2
U 1 1 5E7D771A
P 3200 5650
F 0 "TP2" V 3154 5838 50  0000 L CNN
F 1 "Led1" V 3245 5838 50  0000 L CNN
F 2 "TestPoint:TestPoint_Pad_1.5x1.5mm" H 3400 5650 50  0001 C CNN
F 3 "~" H 3400 5650 50  0001 C CNN
	1    3200 5650
	0    1    1    0   
$EndComp
$Comp
L Connector:TestPoint TP5
U 1 1 5E7DB792
P 8950 1550
F 0 "TP5" V 8904 1738 50  0000 L CNN
F 1 "PowerButton" V 8995 1738 50  0000 L CNN
F 2 "TestPoint:TestPoint_Pad_1.5x1.5mm" H 9150 1550 50  0001 C CNN
F 3 "~" H 9150 1550 50  0001 C CNN
	1    8950 1550
	0    -1   -1   0   
$EndComp
Text GLabel 2750 3350 2    50   Input ~ 0
RGB_CTRL
Text GLabel 13700 4800 2    50   Input ~ 0
SRDATA_B
$Comp
L Device:R_Small R24
U 1 1 5E7EEA80
P 13500 4800
F 0 "R24" V 13304 4800 50  0000 C CNN
F 1 "10k" V 13395 4800 50  0000 C CNN
F 2 "Resistor_SMD:R_0805_2012Metric_Pad1.15x1.40mm_HandSolder" H 13500 4800 50  0001 C CNN
F 3 "~" H 13500 4800 50  0001 C CNN
	1    13500 4800
	0    1    1    0   
$EndComp
Wire Wire Line
	13700 4800 13600 4800
Wire Wire Line
	13400 4800 13300 4800
Text GLabel 2750 3050 2    50   Input ~ 0
SRDATA
Text GLabel 2750 3150 2    50   Input ~ 0
SRCLK
$Comp
L New_Library:TP4056 U2
U 1 1 5E81A76A
P 5700 950
F 0 "U2" H 5700 1231 50  0000 C CNN
F 1 "TP4056" H 5700 1140 50  0000 C CNN
F 2 "Package_SO:SOP-8_3.9x4.9mm_P1.27mm" H 5700 1050 50  0001 C CNN
F 3 "" H 5700 1050 50  0001 C CNN
	1    5700 950 
	1    0    0    -1  
$EndComp
Wire Wire Line
	5250 1000 5150 1000
Wire Wire Line
	5150 1000 5150 850 
Wire Wire Line
	5150 850  5700 850 
Connection ~ 5150 850 
$Comp
L power:GND #PWR08
U 1 1 5E823D98
P 5700 1450
F 0 "#PWR08" H 5700 1200 50  0001 C CNN
F 1 "GND" H 5705 1277 50  0000 C CNN
F 2 "" H 5700 1450 50  0001 C CNN
F 3 "" H 5700 1450 50  0001 C CNN
	1    5700 1450
	1    0    0    -1  
$EndComp
$Comp
L Device:LED_Small D1
U 1 1 5E824B4D
P 4800 1150
F 0 "D1" H 4800 945 50  0000 C CNN
F 1 "LED_Small" H 4800 1036 50  0000 C CNN
F 2 "LED_SMD:LED_0603_1608Metric_Pad1.05x0.95mm_HandSolder" V 4800 1150 50  0001 C CNN
F 3 "~" V 4800 1150 50  0001 C CNN
	1    4800 1150
	-1   0    0    1   
$EndComp
$Comp
L Device:LED_Small D2
U 1 1 5E8265DA
P 4800 1300
F 0 "D2" H 4800 1095 50  0000 C CNN
F 1 "LED_Small" H 4800 1186 50  0000 C CNN
F 2 "LED_SMD:LED_0603_1608Metric_Pad1.05x0.95mm_HandSolder" V 4800 1300 50  0001 C CNN
F 3 "~" V 4800 1300 50  0001 C CNN
	1    4800 1300
	-1   0    0    1   
$EndComp
$Comp
L Device:R_Small R4
U 1 1 5E826C53
P 5050 1150
F 0 "R4" V 4854 1150 50  0000 C CNN
F 1 "10k" V 4945 1150 50  0000 C CNN
F 2 "Resistor_SMD:R_0805_2012Metric_Pad1.15x1.40mm_HandSolder" H 5050 1150 50  0001 C CNN
F 3 "~" H 5050 1150 50  0001 C CNN
	1    5050 1150
	0    1    1    0   
$EndComp
$Comp
L Device:R_Small R5
U 1 1 5E8274BB
P 5050 1300
F 0 "R5" V 4854 1300 50  0000 C CNN
F 1 "10k" V 4945 1300 50  0000 C CNN
F 2 "Resistor_SMD:R_0805_2012Metric_Pad1.15x1.40mm_HandSolder" H 5050 1300 50  0001 C CNN
F 3 "~" H 5050 1300 50  0001 C CNN
	1    5050 1300
	0    1    1    0   
$EndComp
Wire Wire Line
	5150 1300 5250 1300
Wire Wire Line
	5250 1150 5150 1150
Wire Wire Line
	4950 1150 4900 1150
Wire Wire Line
	4900 1300 4950 1300
Wire Wire Line
	4700 1300 4500 1300
Wire Wire Line
	4500 1300 4500 1150
Wire Wire Line
	4500 1150 4700 1150
Wire Wire Line
	4500 1150 4500 850 
Wire Wire Line
	4500 850  5150 850 
Connection ~ 4500 1150
Wire Wire Line
	6150 1300 6150 1450
Wire Wire Line
	6150 1450 5700 1450
Connection ~ 5700 1450
$Comp
L Device:R_Small R6
U 1 1 5E8510D2
P 6300 1150
F 0 "R6" V 6104 1150 50  0000 C CNN
F 1 "2k" V 6195 1150 50  0000 C CNN
F 2 "Resistor_SMD:R_0805_2012Metric_Pad1.15x1.40mm_HandSolder" H 6300 1150 50  0001 C CNN
F 3 "~" H 6300 1150 50  0001 C CNN
	1    6300 1150
	0    -1   -1   0   
$EndComp
Wire Wire Line
	6200 1150 6150 1150
Wire Wire Line
	6400 1150 6450 1150
Wire Wire Line
	6450 1150 6450 1300
Wire Wire Line
	6450 1450 6150 1450
Connection ~ 6150 1450
$Comp
L Device:R_Small R7
U 1 1 5E85CECE
P 6650 1300
F 0 "R7" V 6454 1300 50  0000 C CNN
F 1 "2k" V 6545 1300 50  0000 C CNN
F 2 "Resistor_SMD:R_0805_2012Metric_Pad1.15x1.40mm_HandSolder" H 6650 1300 50  0001 C CNN
F 3 "~" H 6650 1300 50  0001 C CNN
	1    6650 1300
	0    -1   -1   0   
$EndComp
Connection ~ 6450 1300
Wire Wire Line
	6450 1300 6450 1450
Wire Wire Line
	6550 1300 6450 1300
$Comp
L Connector:TestPoint TP3
U 1 1 5E8630F8
P 6400 1000
F 0 "TP3" V 6354 1188 50  0000 L CNN
F 1 "B+" V 6445 1188 50  0000 L CNN
F 2 "TestPoint:TestPoint_Pad_2.5x2.5mm" H 6600 1000 50  0001 C CNN
F 3 "~" H 6600 1000 50  0001 C CNN
	1    6400 1000
	1    0    0    -1  
$EndComp
Wire Wire Line
	6150 1000 6400 1000
$Comp
L New_Library:FS312F-G U7
U 1 1 5E86A365
P 7200 1150
F 0 "U7" H 7200 1365 50  0000 C CNN
F 1 "FS312F-G" H 7200 1274 50  0000 C CNN
F 2 "Package_TO_SOT_SMD:SOT-23-6_Handsoldering" H 7200 1300 50  0001 C CNN
F 3 "" H 7200 1300 50  0001 C CNN
	1    7200 1150
	1    0    0    -1  
$EndComp
Wire Wire Line
	6900 1300 6750 1300
NoConn ~ 6900 1900
NoConn ~ 7500 1900
Wire Wire Line
	6900 1800 6850 1800
Wire Wire Line
	6850 1800 6850 1400
Wire Wire Line
	6850 1400 6900 1400
Wire Wire Line
	6900 2000 6700 2000
Wire Wire Line
	6700 2000 6700 1200
Wire Wire Line
	6700 1200 6900 1200
NoConn ~ 7500 1400
Wire Wire Line
	7500 2000 7600 2000
Wire Wire Line
	7600 2000 7600 1200
Wire Wire Line
	7600 1200 7500 1200
$Comp
L Connector:TestPoint TP4
U 1 1 5E8A24DB
P 7600 1200
F 0 "TP4" V 7554 1388 50  0000 L CNN
F 1 "B-" V 7645 1388 50  0000 L CNN
F 2 "TestPoint:TestPoint_Pad_2.5x2.5mm" H 7800 1200 50  0001 C CNN
F 3 "~" H 7800 1200 50  0001 C CNN
	1    7600 1200
	1    0    0    -1  
$EndComp
Connection ~ 7600 1200
$Comp
L Device:R_Small R16
U 1 1 5E8A2B9C
P 7900 1100
F 0 "R16" V 7704 1100 50  0000 C CNN
F 1 "100R" V 7795 1100 50  0000 C CNN
F 2 "Resistor_SMD:R_0805_2012Metric_Pad1.15x1.40mm_HandSolder" H 7900 1100 50  0001 C CNN
F 3 "~" H 7900 1100 50  0001 C CNN
	1    7900 1100
	1    0    0    -1  
$EndComp
Wire Wire Line
	6550 850  6550 1000
Wire Wire Line
	6550 1000 6400 1000
Connection ~ 6400 1000
Wire Wire Line
	8000 1700 8000 2000
Text GLabel 15300 4800 2    50   Input ~ 0
5VEN
$Comp
L Device:R_Small R27
U 1 1 5E91D1C4
P 15000 4800
F 0 "R27" V 14804 4800 50  0000 C CNN
F 1 "10k" V 14895 4800 50  0000 C CNN
F 2 "Resistor_SMD:R_0805_2012Metric_Pad1.15x1.40mm_HandSolder" H 15000 4800 50  0001 C CNN
F 3 "~" H 15000 4800 50  0001 C CNN
	1    15000 4800
	0    1    1    0   
$EndComp
Wire Wire Line
	14900 4800 14750 4800
Wire Wire Line
	15100 4800 15300 4800
$Comp
L New_Library:MT3608 U3
U 1 1 5E92F599
P 6750 3050
F 0 "U3" H 6750 2635 50  0000 C CNN
F 1 "MT3608" H 6750 2726 50  0000 C CNN
F 2 "Package_TO_SOT_SMD:SOT-23-6_Handsoldering" H 6750 3150 50  0001 C CNN
F 3 "" H 6750 3150 50  0001 C CNN
	1    6750 3050
	-1   0    0    1   
$EndComp
Connection ~ 7600 2000
Wire Wire Line
	7600 2000 8000 2000
$Comp
L Device:R_Small R9
U 1 1 5E964AEB
P 7550 3150
F 0 "R9" V 7354 3150 50  0000 C CNN
F 1 "1k" V 7445 3150 50  0000 C CNN
F 2 "Resistor_SMD:R_0805_2012Metric_Pad1.15x1.40mm_HandSolder" H 7550 3150 50  0001 C CNN
F 3 "~" H 7550 3150 50  0001 C CNN
	1    7550 3150
	1    0    0    -1  
$EndComp
Text GLabel 5450 2600 0    50   Input ~ 0
5VEN
$Comp
L Device:L_Small L1
U 1 1 5E998F26
P 6750 2550
F 0 "L1" V 6935 2550 50  0000 C CNN
F 1 "22uH" V 6844 2550 50  0000 C CNN
F 2 "Inductor_SMD:L_1210_3225Metric_Pad1.42x2.65mm_HandSolder" H 6750 2550 50  0001 C CNN
F 3 "~" H 6750 2550 50  0001 C CNN
	1    6750 2550
	0    -1   -1   0   
$EndComp
$Comp
L Device:D_Schottky D3
U 1 1 5E9A17F4
P 7300 2550
F 0 "D3" H 7300 2334 50  0000 C CNN
F 1 "SS34" H 7300 2425 50  0000 C CNN
F 2 "Diode_SMD:D_SMA" H 7300 2550 50  0001 C CNN
F 3 "~" H 7300 2550 50  0001 C CNN
	1    7300 2550
	-1   0    0    1   
$EndComp
Wire Wire Line
	7900 850  6550 850 
Wire Wire Line
	7900 1300 7900 1200
Wire Wire Line
	7500 1300 7900 1300
Wire Wire Line
	8000 1300 8000 1500
Wire Wire Line
	7900 1300 8000 1300
Connection ~ 7900 1300
$Comp
L Device:R_Small R11
U 1 1 5E9D6E48
P 7550 2750
F 0 "R11" V 7354 2750 50  0000 C CNN
F 1 "7.5k" V 7445 2750 50  0000 C CNN
F 2 "Resistor_SMD:R_0805_2012Metric_Pad1.15x1.40mm_HandSolder" H 7550 2750 50  0001 C CNN
F 3 "~" H 7550 2750 50  0001 C CNN
	1    7550 2750
	1    0    0    -1  
$EndComp
$Comp
L Device:CP_Small C4
U 1 1 5E9E8A70
P 7850 2700
F 0 "C4" H 7938 2746 50  0000 L CNN
F 1 "10uF" H 7938 2655 50  0000 L CNN
F 2 "Capacitor_Tantalum_SMD:CP_EIA-3216-10_Kemet-I_Pad1.58x1.35mm_HandSolder" H 7850 2700 50  0001 C CNN
F 3 "~" H 7850 2700 50  0001 C CNN
	1    7850 2700
	1    0    0    -1  
$EndComp
$Comp
L power:+5V #PWR017
U 1 1 5E9FADE1
P 7550 2450
F 0 "#PWR017" H 7550 2300 50  0001 C CNN
F 1 "+5V" H 7565 2623 50  0000 C CNN
F 2 "" H 7550 2450 50  0001 C CNN
F 3 "" H 7550 2450 50  0001 C CNN
	1    7550 2450
	1    0    0    -1  
$EndComp
Wire Wire Line
	2550 6350 2550 6250
Wire Wire Line
	2350 2650 2350 2600
$Comp
L power:+3V3 #PWR07
U 1 1 5EA4BADC
P 2350 2600
F 0 "#PWR07" H 2350 2450 50  0001 C CNN
F 1 "+3V3" H 2365 2773 50  0000 C CNN
F 2 "" H 2350 2600 50  0001 C CNN
F 3 "" H 2350 2600 50  0001 C CNN
	1    2350 2600
	1    0    0    -1  
$EndComp
Text GLabel 5600 2250 0    50   Input ~ 0
P4VSTBY
$Comp
L power:GND #PWR011
U 1 1 5EA7AD9F
P 6750 3400
F 0 "#PWR011" H 6750 3150 50  0001 C CNN
F 1 "GND" H 6755 3227 50  0000 C CNN
F 2 "" H 6750 3400 50  0001 C CNN
F 3 "" H 6750 3400 50  0001 C CNN
	1    6750 3400
	1    0    0    -1  
$EndComp
Wire Wire Line
	7150 2550 7100 2550
Wire Wire Line
	6750 3150 6750 3350
Connection ~ 6750 3350
Wire Wire Line
	6750 3350 6750 3400
Wire Wire Line
	7550 2550 7450 2550
Wire Wire Line
	7550 2550 7550 2450
$Comp
L Device:R_Small R10
U 1 1 5EB12305
P 7150 4200
F 0 "R10" V 6954 4200 50  0000 C CNN
F 1 "2k" V 7045 4200 50  0000 C CNN
F 2 "Resistor_SMD:R_0805_2012Metric_Pad1.15x1.40mm_HandSolder" H 7150 4200 50  0001 C CNN
F 3 "~" H 7150 4200 50  0001 C CNN
	1    7150 4200
	1    0    0    -1  
$EndComp
$Comp
L Device:L_Small L2
U 1 1 5EB12310
P 7250 3900
F 0 "L2" V 7435 3900 50  0000 C CNN
F 1 "2uH2" V 7344 3900 50  0000 C CNN
F 2 "Inductor_SMD:L_0603_1608Metric_Pad1.05x0.95mm_HandSolder" H 7250 3900 50  0001 C CNN
F 3 "~" H 7250 3900 50  0001 C CNN
	1    7250 3900
	0    -1   -1   0   
$EndComp
$Comp
L Device:CP_Small C6
U 1 1 5EB1232E
P 7600 4250
F 0 "C6" V 7825 4250 50  0000 C CNN
F 1 "10uF" V 7734 4250 50  0000 C CNN
F 2 "Capacitor_Tantalum_SMD:CP_EIA-3216-10_Kemet-I_Pad1.58x1.35mm_HandSolder" H 7600 4250 50  0001 C CNN
F 3 "~" H 7600 4250 50  0001 C CNN
	1    7600 4250
	1    0    0    -1  
$EndComp
Text GLabel 6350 4000 0    50   Input ~ 0
P4VSTBY
$Comp
L power:GND #PWR012
U 1 1 5EB12343
P 6750 4450
F 0 "#PWR012" H 6750 4200 50  0001 C CNN
F 1 "GND" H 6755 4277 50  0000 C CNN
F 2 "" H 6750 4450 50  0001 C CNN
F 3 "" H 6750 4450 50  0001 C CNN
	1    6750 4450
	1    0    0    -1  
$EndComp
Wire Wire Line
	7150 4100 7150 4000
Wire Wire Line
	7150 4000 7050 4000
Wire Wire Line
	7150 3900 7050 3900
Wire Wire Line
	7150 4000 7300 4000
Connection ~ 7150 4000
Wire Wire Line
	7150 4400 7150 4300
Wire Wire Line
	7600 3900 7600 3800
Connection ~ 7600 3900
$Comp
L power:+3V3 #PWR018
U 1 1 5EB39B6E
P 7600 3800
F 0 "#PWR018" H 7600 3650 50  0001 C CNN
F 1 "+3V3" H 7615 3973 50  0000 C CNN
F 2 "" H 7600 3800 50  0001 C CNN
F 3 "" H 7600 3800 50  0001 C CNN
	1    7600 3800
	1    0    0    -1  
$EndComp
Wire Wire Line
	6750 4200 6750 4400
Connection ~ 6750 4400
Wire Wire Line
	6750 4400 6750 4450
$Comp
L New_Library:M3406 U4
U 1 1 5EB98E5B
P 6750 4100
F 0 "U4" H 6750 3685 50  0000 C CNN
F 1 "M3406" H 6750 3776 50  0000 C CNN
F 2 "Package_TO_SOT_SMD:SOT-23-5_HandSoldering" H 6750 4200 50  0001 C CNN
F 3 "" H 6750 4200 50  0001 C CNN
	1    6750 4100
	-1   0    0    1   
$EndComp
Text GLabel 6450 3900 0    50   Input ~ 0
3V3EN
Wire Wire Line
	14750 4800 14750 5100
Connection ~ 14750 4800
Text GLabel 15300 5100 2    50   Input ~ 0
3V3EN
$Comp
L Device:R_Small R28
U 1 1 5EBC7A86
P 15000 5100
F 0 "R28" V 14804 5100 50  0000 C CNN
F 1 "10k" V 14895 5100 50  0000 C CNN
F 2 "Resistor_SMD:R_0805_2012Metric_Pad1.15x1.40mm_HandSolder" H 15000 5100 50  0001 C CNN
F 3 "~" H 15000 5100 50  0001 C CNN
	1    15000 5100
	0    1    1    0   
$EndComp
Wire Wire Line
	14900 5100 14750 5100
Wire Wire Line
	15100 5100 15300 5100
Connection ~ 14750 5100
$Comp
L Memory_NVRAM:MB85RS16 U10
U 1 1 5EBE139F
P 9800 2850
F 0 "U10" H 9800 3331 50  0000 C CNN
F 1 "FM25CL64B" H 9800 3240 50  0000 C CNN
F 2 "Package_SO:SOIC-8_3.9x4.9mm_P1.27mm" H 9450 2800 50  0001 C CNN
F 3 "http://www.fujitsu.com/downloads/MICRO/fsa/pdf/products/memory/fram/MB85RS16-DS501-00014-6v0-E.pdf" H 9450 2800 50  0001 C CNN
	1    9800 2850
	1    0    0    -1  
$EndComp
Text GLabel 9300 2750 0    50   Input ~ 0
~RESET~
Wire Wire Line
	9300 2750 9350 2750
Wire Wire Line
	9350 2750 9350 2850
Wire Wire Line
	9350 2850 9400 2850
Connection ~ 9350 2750
Wire Wire Line
	9350 2750 9400 2750
Text GLabel 9400 2950 0    50   Input ~ 0
~SPI_FRAM_CS~
$Comp
L New_Library:MC74VHC1G04 U9
U 1 1 5EC73F4E
P 9750 1300
F 0 "U9" H 10194 1096 50  0000 L CNN
F 1 "MC74VHC1G04" H 10194 1005 50  0000 L CNN
F 2 "Package_TO_SOT_SMD:SOT-353_SC-70-5_Handsoldering" H 9750 1450 50  0001 C CNN
F 3 "" H 9750 1450 50  0001 C CNN
	1    9750 1300
	1    0    0    -1  
$EndComp
Text Label 9100 1550 0    50   ~ 0
~PWRBTN~
Text Label 10350 1550 0    50   ~ 0
PWRBTN
$Comp
L power:GND #PWR020
U 1 1 5EC8DF42
P 9750 1800
F 0 "#PWR020" H 9750 1550 50  0001 C CNN
F 1 "GND" H 9755 1627 50  0000 C CNN
F 2 "" H 9750 1800 50  0001 C CNN
F 3 "" H 9750 1800 50  0001 C CNN
	1    9750 1800
	1    0    0    -1  
$EndComp
$Comp
L New_Library:NC7SZ332 U12
U 1 1 5ECCE1DC
P 11150 1550
F 0 "U12" H 11494 1446 50  0000 L CNN
F 1 "NC7SZ332" H 11494 1355 50  0000 L CNN
F 2 "Package_TO_SOT_SMD:SOT-363_SC-70-6_Handsoldering" H 11150 1750 50  0001 C CNN
F 3 "" H 11150 1750 50  0001 C CNN
	1    11150 1550
	1    0    0    -1  
$EndComp
$Comp
L power:GND #PWR027
U 1 1 5ECE80AE
P 11150 2400
F 0 "#PWR027" H 11150 2150 50  0001 C CNN
F 1 "GND" H 11155 2227 50  0000 C CNN
F 2 "" H 11150 2400 50  0001 C CNN
F 3 "" H 11150 2400 50  0001 C CNN
	1    11150 2400
	1    0    0    -1  
$EndComp
$Comp
L Device:R_Small R18
U 1 1 5ECE8738
P 10650 1850
F 0 "R18" V 10454 1850 50  0000 C CNN
F 1 "1k" V 10545 1850 50  0000 C CNN
F 2 "Resistor_SMD:R_0805_2012Metric_Pad1.15x1.40mm_HandSolder" H 10650 1850 50  0001 C CNN
F 3 "~" H 10650 1850 50  0001 C CNN
	1    10650 1850
	0    -1   -1   0   
$EndComp
Wire Wire Line
	10750 1850 10800 1850
Text GLabel 10400 1850 0    50   Input ~ 0
VBUS5
Wire Wire Line
	10400 1850 10550 1850
Text GLabel 10850 1700 0    50   Input ~ 0
3V3_KEEP
Text GLabel 15300 5400 2    50   Input ~ 0
3V3_KEEP
$Comp
L Device:R_Small R29
U 1 1 5ED00D94
P 15000 5400
F 0 "R29" V 14804 5400 50  0000 C CNN
F 1 "10k" V 14895 5400 50  0000 C CNN
F 2 "Resistor_SMD:R_0805_2012Metric_Pad1.15x1.40mm_HandSolder" H 15000 5400 50  0001 C CNN
F 3 "~" H 15000 5400 50  0001 C CNN
	1    15000 5400
	0    1    1    0   
$EndComp
Wire Wire Line
	14900 5400 14750 5400
Wire Wire Line
	15100 5400 15300 5400
Connection ~ 14750 5400
Wire Wire Line
	14750 5100 14750 5400
$Comp
L Regulator_Linear:AZ1117-2.85 U6
U 1 1 5EDA81AF
P 6750 5000
F 0 "U6" H 6750 5242 50  0000 C CNN
F 1 "HX6206P282MR" H 6750 5151 50  0000 C CNN
F 2 "Package_TO_SOT_SMD:SOT-23" H 6750 5250 50  0001 C CIN
F 3 "https://www.diodes.com/assets/Datasheets/AZ1117.pdf" H 6750 5000 50  0001 C CNN
	1    6750 5000
	1    0    0    -1  
$EndComp
Text GLabel 6450 5000 0    50   Input ~ 0
P4VSTBY
$Comp
L power:GND #PWR013
U 1 1 5EDA9F6A
P 6750 5450
F 0 "#PWR013" H 6750 5200 50  0001 C CNN
F 1 "GND" H 6755 5277 50  0000 C CNN
F 2 "" H 6750 5450 50  0001 C CNN
F 3 "" H 6750 5450 50  0001 C CNN
	1    6750 5450
	1    0    0    -1  
$EndComp
$Comp
L Device:C_Small C3
U 1 1 5EDAAA63
P 7150 5200
F 0 "C3" V 6921 5200 50  0000 C CNN
F 1 "4uF7" V 7012 5200 50  0000 C CNN
F 2 "Capacitor_SMD:C_0603_1608Metric_Pad1.05x0.95mm_HandSolder" H 7150 5200 50  0001 C CNN
F 3 "~" H 7150 5200 50  0001 C CNN
	1    7150 5200
	-1   0    0    1   
$EndComp
Wire Wire Line
	6750 5450 6750 5400
Wire Wire Line
	6750 5400 7150 5400
Wire Wire Line
	7150 5400 7150 5300
Connection ~ 6750 5400
Wire Wire Line
	6750 5400 6750 5300
Wire Wire Line
	7150 5100 7150 5000
Wire Wire Line
	7150 5000 7050 5000
$Comp
L power:+2V8 #PWR015
U 1 1 5EDD1A42
P 7150 4950
F 0 "#PWR015" H 7150 4800 50  0001 C CNN
F 1 "+2V8" H 7165 5123 50  0000 C CNN
F 2 "" H 7150 4950 50  0001 C CNN
F 3 "" H 7150 4950 50  0001 C CNN
	1    7150 4950
	1    0    0    -1  
$EndComp
Wire Wire Line
	7150 4950 7150 5000
Connection ~ 7150 5000
$Comp
L power:+2V8 #PWR01
U 1 1 5EDFB793
P 1850 2600
F 0 "#PWR01" H 1850 2450 50  0001 C CNN
F 1 "+2V8" H 1865 2773 50  0000 C CNN
F 2 "" H 1850 2600 50  0001 C CNN
F 3 "" H 1850 2600 50  0001 C CNN
	1    1850 2600
	1    0    0    -1  
$EndComp
Wire Wire Line
	2550 6250 2250 6250
Connection ~ 2250 6250
Wire Wire Line
	2250 6250 2150 6250
Connection ~ 2150 6250
Wire Wire Line
	2150 6250 2050 6250
Connection ~ 2050 6250
Wire Wire Line
	2050 6250 1950 6250
Wire Wire Line
	1950 6250 1850 6250
Connection ~ 1950 6250
Connection ~ 2350 2650
Wire Wire Line
	2250 2650 2350 2650
Connection ~ 2250 2650
Wire Wire Line
	2150 2650 2250 2650
Connection ~ 2150 2650
Wire Wire Line
	2050 2650 2150 2650
Connection ~ 2050 2650
Wire Wire Line
	1950 2650 2050 2650
Wire Wire Line
	1850 2650 1850 2600
$Comp
L power:GND #PWR026
U 1 1 5EE0E737
P 10100 5100
F 0 "#PWR026" H 10100 4850 50  0001 C CNN
F 1 "GND" H 10105 4927 50  0000 C CNN
F 2 "" H 10100 5100 50  0001 C CNN
F 3 "" H 10100 5100 50  0001 C CNN
	1    10100 5100
	1    0    0    -1  
$EndComp
$Comp
L power:+3V3 #PWR024
U 1 1 5EE0EB9F
P 10150 3800
F 0 "#PWR024" H 10150 3650 50  0001 C CNN
F 1 "+3V3" H 10165 3973 50  0000 C CNN
F 2 "" H 10150 3800 50  0001 C CNN
F 3 "" H 10150 3800 50  0001 C CNN
	1    10150 3800
	1    0    0    -1  
$EndComp
Text GLabel 14350 5100 2    50   Input ~ 0
~RESET~
$Comp
L Device:R_Small R25
U 1 1 5EE37255
P 13500 5100
F 0 "R25" V 13304 5100 50  0000 C CNN
F 1 "10k" V 13395 5100 50  0000 C CNN
F 2 "Resistor_SMD:R_0805_2012Metric_Pad1.15x1.40mm_HandSolder" H 13500 5100 50  0001 C CNN
F 3 "~" H 13500 5100 50  0001 C CNN
	1    13500 5100
	0    1    1    0   
$EndComp
Wire Wire Line
	13400 5100 13300 5100
Wire Wire Line
	13300 4800 13300 5100
Connection ~ 13300 4800
$Comp
L Device:C_Small C7
U 1 1 5EE51B48
P 14250 4950
F 0 "C7" V 14021 4950 50  0000 C CNN
F 1 "4uF7" V 14112 4950 50  0000 C CNN
F 2 "Capacitor_SMD:C_0603_1608Metric_Pad1.05x0.95mm_HandSolder" H 14250 4950 50  0001 C CNN
F 3 "~" H 14250 4950 50  0001 C CNN
	1    14250 4950
	1    0    0    -1  
$EndComp
Wire Wire Line
	14250 5100 14250 5050
Wire Wire Line
	13600 5100 14250 5100
Wire Wire Line
	14350 5100 14250 5100
Connection ~ 14250 5100
Wire Wire Line
	14250 4850 14250 4800
Wire Wire Line
	14250 4800 14750 4800
$Comp
L Device:R_Small R19
U 1 1 5EE993E7
P 10800 2200
F 0 "R19" V 10604 2200 50  0000 C CNN
F 1 "10k" V 10695 2200 50  0000 C CNN
F 2 "Resistor_SMD:R_0805_2012Metric_Pad1.15x1.40mm_HandSolder" H 10800 2200 50  0001 C CNN
F 3 "~" H 10800 2200 50  0001 C CNN
	1    10800 2200
	1    0    0    -1  
$EndComp
Wire Wire Line
	10800 2100 10800 1850
Connection ~ 10800 1850
Wire Wire Line
	10800 1850 10850 1850
Wire Wire Line
	10800 2300 10800 2350
Wire Wire Line
	10800 2350 11150 2350
Wire Wire Line
	11150 2350 11150 2400
Wire Wire Line
	11150 2350 11150 2050
Connection ~ 11150 2350
Text GLabel 2750 2850 2    50   Input ~ 0
RXD
Text GLabel 2750 2950 2    50   Input ~ 0
TXD
Text GLabel 2750 4050 2    50   Input ~ 0
D+
Text GLabel 2750 3950 2    50   Input ~ 0
D-
Text GLabel 1350 2850 0    50   Input ~ 0
~RESET~
$Comp
L Device:R_Small R17
U 1 1 5EF836D7
P 9000 1250
F 0 "R17" V 8804 1250 50  0000 C CNN
F 1 "10k" V 8895 1250 50  0000 C CNN
F 2 "Resistor_SMD:R_0805_2012Metric_Pad1.15x1.40mm_HandSolder" H 9000 1250 50  0001 C CNN
F 3 "~" H 9000 1250 50  0001 C CNN
	1    9000 1250
	1    0    0    -1  
$EndComp
Wire Wire Line
	9000 1350 9000 1550
Wire Wire Line
	9000 1550 8950 1550
Wire Wire Line
	9000 1550 9450 1550
Connection ~ 9000 1550
Wire Wire Line
	9000 1150 9000 1100
Wire Wire Line
	9000 1100 9750 1100
Wire Wire Line
	9750 1100 9750 1300
Connection ~ 9000 1100
Wire Wire Line
	11150 1350 11150 1100
Wire Wire Line
	11150 1100 9750 1100
Connection ~ 9750 1100
Text GLabel 2750 5450 2    50   Input ~ 0
KSDMUXC
Text GLabel 2750 5050 2    50   Input ~ 0
KSDMUXA
Text GLabel 2750 6050 2    50   Input ~ 0
SPI_MOSI
Text GLabel 3250 5750 2    50   Input ~ 0
~SPI_FRAM_CS~
Text GLabel 2750 5350 2    50   Input ~ 0
KSDMUXB
Wire Wire Line
	3050 5550 3200 5550
Wire Wire Line
	3200 5650 3050 5650
Wire Wire Line
	2850 5550 2750 5550
Wire Wire Line
	2750 5650 2850 5650
$Comp
L power:GND #PWR016
U 1 1 5F2FA42B
P 7850 1700
F 0 "#PWR016" H 7850 1450 50  0001 C CNN
F 1 "GND" H 7855 1527 50  0000 C CNN
F 2 "" H 7850 1700 50  0001 C CNN
F 3 "" H 7850 1700 50  0001 C CNN
	1    7850 1700
	1    0    0    -1  
$EndComp
Wire Wire Line
	7500 1800 7750 1800
Wire Wire Line
	7750 1800 7750 1700
Wire Wire Line
	7750 1700 7850 1700
Text GLabel 1350 3050 0    50   Input ~ 0
BOOT0
Connection ~ 13300 5100
Wire Wire Line
	14750 5400 14750 5450
$Comp
L Switch:SW_Push SW1
U 1 1 5F37E17A
P 14100 5450
F 0 "SW1" H 14100 5735 50  0000 C CNN
F 1 "BOOT" H 14100 5644 50  0000 C CNN
F 2 "Button_Switch_THT:SW_PUSH_6mm" H 14100 5650 50  0001 C CNN
F 3 "~" H 14100 5650 50  0001 C CNN
	1    14100 5450
	1    0    0    -1  
$EndComp
Wire Wire Line
	13900 5450 13300 5450
Wire Wire Line
	13300 5100 13300 5450
$Comp
L Device:R_Small R26
U 1 1 5F38B52A
P 14550 5450
F 0 "R26" V 14354 5450 50  0000 C CNN
F 1 "10k" V 14445 5450 50  0000 C CNN
F 2 "Resistor_SMD:R_0805_2012Metric_Pad1.15x1.40mm_HandSolder" H 14550 5450 50  0001 C CNN
F 3 "~" H 14550 5450 50  0001 C CNN
	1    14550 5450
	0    1    1    0   
$EndComp
Wire Wire Line
	14650 5450 14750 5450
Connection ~ 14750 5450
Wire Wire Line
	14750 5450 14750 5600
Wire Wire Line
	14450 5450 14350 5450
Wire Wire Line
	14350 5450 14350 5600
Wire Wire Line
	14350 5600 14200 5600
Connection ~ 14350 5450
Wire Wire Line
	14350 5450 14300 5450
Text GLabel 14200 5600 0    50   Input ~ 0
BOOT0
Text GLabel 12300 3950 2    50   Input ~ 0
~RESET~
Text GLabel 10500 4250 2    50   Input ~ 0
SPI_SCK
Text GLabel 10500 4050 2    50   Input ~ 0
SPI_MOSI
Text GLabel 10500 4150 2    50   Input ~ 0
SPI_MISO
Text GLabel 11050 4350 2    50   Input ~ 0
~SPI_SEL_WT12~
Text GLabel 3250 3250 2    50   Input ~ 0
~SPI_SEL_WT12~
Wire Wire Line
	10500 4350 11050 4350
Wire Wire Line
	3250 3250 2750 3250
Wire Wire Line
	3250 5750 2750 5750
Text GLabel 2050 1300 2    50   Input ~ 0
SWO
Text GLabel 2050 1100 2    50   Input ~ 0
SWDIO
Text GLabel 2550 1350 2    50   Input ~ 0
~SPI_SEL_WT12~
Text GLabel 2550 1550 2    50   Input ~ 0
~SPI_FRAM_CS~
Wire Wire Line
	2550 1550 2500 1550
Wire Wire Line
	2500 1550 2500 1500
Wire Wire Line
	2550 1350 2500 1350
Wire Wire Line
	2500 1350 2500 1400
Wire Wire Line
	2050 1400 2500 1400
Wire Wire Line
	2050 1500 2500 1500
$Comp
L Device:R_Small R22
U 1 1 5F574261
P 13200 900
F 0 "R22" V 13004 900 50  0000 C CNN
F 1 "7.5k" V 13095 900 50  0000 C CNN
F 2 "Resistor_SMD:R_0805_2012Metric_Pad1.15x1.40mm_HandSolder" H 13200 900 50  0001 C CNN
F 3 "~" H 13200 900 50  0001 C CNN
	1    13200 900 
	0    -1   -1   0   
$EndComp
$Comp
L Device:R_Small R21
U 1 1 5F575C95
P 12950 1150
F 0 "R21" V 12754 1150 50  0000 C CNN
F 1 "2k" V 12845 1150 50  0000 C CNN
F 2 "Resistor_SMD:R_0805_2012Metric_Pad1.15x1.40mm_HandSolder" H 12950 1150 50  0001 C CNN
F 3 "~" H 12950 1150 50  0001 C CNN
	1    12950 1150
	1    0    0    -1  
$EndComp
Wire Wire Line
	12950 900  13100 900 
Text GLabel 12750 900  0    50   Input ~ 0
VBAT_MEASURE
Wire Wire Line
	12750 900  12950 900 
Connection ~ 12950 900 
Text GLabel 13450 900  2    50   Input ~ 0
P4VSTBY
Wire Wire Line
	13450 900  13300 900 
$Comp
L Device:Q_NMOS_GSD Q1
U 1 1 5F5B2266
P 12850 1550
F 0 "Q1" H 13055 1596 50  0000 L CNN
F 1 "L2N7002LT1G" H 13055 1505 50  0000 L CNN
F 2 "Package_TO_SOT_SMD:SOT-23" H 13050 1650 50  0001 C CNN
F 3 "~" H 12850 1550 50  0001 C CNN
	1    12850 1550
	1    0    0    -1  
$EndComp
Wire Wire Line
	12950 1350 12950 1250
$Comp
L power:GND #PWR028
U 1 1 5F5C2D29
P 12950 1850
F 0 "#PWR028" H 12950 1600 50  0001 C CNN
F 1 "GND" H 12955 1677 50  0000 C CNN
F 2 "" H 12950 1850 50  0001 C CNN
F 3 "" H 12950 1850 50  0001 C CNN
	1    12950 1850
	1    0    0    -1  
$EndComp
Wire Wire Line
	12950 1850 12950 1750
Text GLabel 12250 1700 0    50   Input ~ 0
3V3EN
Wire Wire Line
	11450 1550 12350 1550
Wire Wire Line
	12350 1550 12350 1700
Wire Wire Line
	12350 1700 12250 1700
Wire Wire Line
	12350 1550 12650 1550
Connection ~ 12350 1550
Text GLabel 2750 3450 2    50   Input ~ 0
VBAT_MEASURE
$Comp
L Device:C_Small C5
U 1 1 5E8B150F
P 8000 1600
F 0 "C5" H 8092 1646 50  0000 L CNN
F 1 "100nF" H 8092 1555 50  0000 L CNN
F 2 "Capacitor_SMD:C_0603_1608Metric_Pad1.05x0.95mm_HandSolder" H 8000 1600 50  0001 C CNN
F 3 "~" H 8000 1600 50  0001 C CNN
	1    8000 1600
	1    0    0    -1  
$EndComp
Text GLabel 2750 3550 2    50   Input ~ 0
~POWER_BTN~
Text GLabel 2750 3650 2    50   Input ~ 0
5VEN
Text GLabel 2750 3750 2    50   Input ~ 0
3V3_KEEP
NoConn ~ 2750 3850
$Comp
L Connector:TestPoint TP6
U 1 1 5F88928F
P 12450 2950
F 0 "TP6" V 12404 3138 50  0000 L CNN
F 1 "SDA" V 12495 3138 50  0000 L CNN
F 2 "TestPoint:TestPoint_Pad_1.5x1.5mm" H 12650 2950 50  0001 C CNN
F 3 "~" H 12650 2950 50  0001 C CNN
	1    12450 2950
	0    1    1    0   
$EndComp
$Comp
L Connector:TestPoint TP7
U 1 1 5F889299
P 12450 3150
F 0 "TP7" V 12404 3338 50  0000 L CNN
F 1 "SCL" V 12495 3338 50  0000 L CNN
F 2 "TestPoint:TestPoint_Pad_1.5x1.5mm" H 12650 3150 50  0001 C CNN
F 3 "~" H 12650 3150 50  0001 C CNN
	1    12450 3150
	0    1    1    0   
$EndComp
Text GLabel 12450 3150 0    50   Input ~ 0
SCL
Text GLabel 12450 2950 0    50   Input ~ 0
SDA
Text Label 8000 2000 0    50   ~ 0
BAT_GND
$Comp
L Connector:TestPoint TP9
U 1 1 5FB59CB8
P 3750 2500
F 0 "TP9" V 3704 2688 50  0000 L CNN
F 1 "RGB_DATA" V 3795 2688 50  0000 L CNN
F 2 "TestPoint:TestPoint_Pad_1.5x1.5mm" H 3950 2500 50  0001 C CNN
F 3 "~" H 3950 2500 50  0001 C CNN
	1    3750 2500
	0    -1   -1   0   
$EndComp
$Comp
L power:+3V3 #PWR0101
U 1 1 5FBCC35A
P 9800 2550
F 0 "#PWR0101" H 9800 2400 50  0001 C CNN
F 1 "+3V3" H 9815 2723 50  0000 C CNN
F 2 "" H 9800 2550 50  0001 C CNN
F 3 "" H 9800 2550 50  0001 C CNN
	1    9800 2550
	1    0    0    -1  
$EndComp
Wire Wire Line
	13300 4400 13300 4500
$Comp
L MCU_ST_STM32L4:STM32L476RCTx U1
U 1 1 5EA0045F
P 2050 4450
F 0 "U1" H 2050 2561 50  0000 C CNN
F 1 "STM32L476RCTx" H 2050 2470 50  0000 C CNN
F 2 "Package_QFP:LQFP-64_10x10mm_P0.5mm" H 1450 2750 50  0001 R CNN
F 3 "http://www.st.com/st-web-ui/static/active/en/resource/technical/document/datasheet/DM00108832.pdf" H 2050 4450 50  0001 C CNN
	1    2050 4450
	1    0    0    -1  
$EndComp
Text GLabel 1300 1000 0    50   Input ~ 0
D-
Text GLabel 1300 900  0    50   Input ~ 0
D+
Text GLabel 9000 1550 3    50   Input ~ 0
~POWER_BTN~
Wire Wire Line
	6750 4400 7150 4400
$Comp
L power:+3V3 #PWR0102
U 1 1 5E716914
P 13300 4400
F 0 "#PWR0102" H 13300 4250 50  0001 C CNN
F 1 "+3V3" H 13315 4573 50  0000 C CNN
F 2 "" H 13300 4400 50  0001 C CNN
F 3 "" H 13300 4400 50  0001 C CNN
	1    13300 4400
	1    0    0    -1  
$EndComp
Wire Wire Line
	12950 900  12950 1050
Text GLabel 13700 5850 2    50   Input ~ 0
~SPI_SEL_WT12~
$Comp
L Device:R_Small R1
U 1 1 5E7421E2
P 13500 5850
F 0 "R1" V 13304 5850 50  0000 C CNN
F 1 "10k" V 13395 5850 50  0000 C CNN
F 2 "Resistor_SMD:R_0805_2012Metric_Pad1.15x1.40mm_HandSolder" H 13500 5850 50  0001 C CNN
F 3 "~" H 13500 5850 50  0001 C CNN
	1    13500 5850
	0    1    1    0   
$EndComp
Wire Wire Line
	13700 5850 13600 5850
Wire Wire Line
	13400 5850 13300 5850
Wire Wire Line
	13300 5850 13300 5450
Connection ~ 13300 5450
Text Notes 1250 7600 0    50   ~ 0
VBUS5: USB supply voltage (5V)\n+2V8: 2.8 V (standby)\n+3V3: 3.327 V\n+5V: 5.1 V
Text Notes 1250 8000 0    50   ~ 0
3V3 enabled when at least one of these conditions is satisfied:\n - external (USB) power is present\n - the power button is pressed\n - 3V3_KEEP signal is present
Text Notes 1900 8400 0    50   ~ 0
+2V8
Text Notes 2200 8400 0    50   ~ 0
+3V3
Text Notes 2500 8400 0    50   ~ 0
+5V
Text Notes 2800 8400 0    50   ~ 0
P4VSTBY
Text Notes 1500 8550 0    50   ~ 0
Standby
Text Notes 1500 8700 0    50   ~ 0
Sleep
Text Notes 1500 8850 0    50   ~ 0
Run
Wire Notes Line
	1850 8300 1850 8900
Wire Notes Line
	2150 8300 2150 8900
Wire Notes Line
	2450 8300 2450 8900
Wire Notes Line
	2750 8300 2750 8900
Wire Notes Line
	1450 8450 3200 8450
Wire Notes Line
	1450 8600 3200 8600
Wire Notes Line
	1450 8750 3200 8750
Text Notes 2200 8550 0    50   ~ 0
No
Text Notes 2500 8550 0    50   ~ 0
No
Text Notes 2850 8550 0    50   ~ 0
Yes
Text Notes 2850 8700 0    50   ~ 0
Yes
Text Notes 2850 8850 0    50   ~ 0
Yes
Text Notes 2500 8850 0    50   ~ 0
Yes
Text Notes 2200 8850 0    50   ~ 0
Yes
Text Notes 1900 8850 0    50   ~ 0
Yes
Text Notes 1900 8700 0    50   ~ 0
Yes
Text Notes 1900 8550 0    50   ~ 0
Yes
Text Notes 2200 8700 0    50   ~ 0
Yes
Text Notes 2500 8700 0    50   ~ 0
No
Text Notes 1250 8200 0    50   ~ 0
Table of which power lines are present in which power states
Text GLabel 2050 900  2    50   Input ~ 0
SWCLK
$Comp
L Connector:Conn_01x12_Male J1
U 1 1 5E839B51
P 1850 1300
F 0 "J1" H 1958 1981 50  0000 C CNN
F 1 "Conn_01x12_Male" H 1958 1890 50  0000 C CNN
F 2 "Connector_PinHeader_2.54mm:PinHeader_1x12_P2.54mm_Vertical" H 1850 1300 50  0001 C CNN
F 3 "~" H 1850 1300 50  0001 C CNN
	1    1850 1300
	1    0    0    -1  
$EndComp
$Comp
L New_Library:FS8205 U8
U 1 1 5E8710EF
P 7200 2050
F 0 "U8" H 7200 2225 50  0000 C CNN
F 1 "FS8205" H 7200 2134 50  0000 C CNN
F 2 "Package_TO_SOT_SMD:SOT-23-6_Handsoldering" H 7200 2150 50  0001 C CNN
F 3 "" H 7200 2150 50  0001 C CNN
	1    7200 2050
	1    0    0    1   
$EndComp
$Comp
L Connector:TestPoint TP8
U 1 1 5E9148F6
P 14750 5600
F 0 "TP8" V 14704 5788 50  0000 L CNN
F 1 "GND" V 14795 5788 50  0000 L CNN
F 2 "TestPoint:TestPoint_Pad_1.5x1.5mm" H 14950 5600 50  0001 C CNN
F 3 "~" H 14950 5600 50  0001 C CNN
	1    14750 5600
	0    1    1    0   
$EndComp
Connection ~ 14750 5600
Wire Wire Line
	14750 5600 14750 5700
NoConn ~ 10050 3800
NoConn ~ 9700 4550
NoConn ~ 9700 4450
NoConn ~ 9700 4350
NoConn ~ 9700 4250
NoConn ~ 9700 4150
NoConn ~ 9700 4050
NoConn ~ 9700 3950
NoConn ~ 10500 4950
NoConn ~ 10500 4850
NoConn ~ 10500 4750
NoConn ~ 10500 4650
NoConn ~ 10500 4550
NoConn ~ 10500 4450
NoConn ~ 1350 4150
NoConn ~ 1350 4050
NoConn ~ 1350 4350
$Comp
L New_Library:WT12 U11
U 1 1 5EE0AFA9
P 10100 3900
F 0 "U11" H 10350 4100 50  0000 C CNN
F 1 "WT12" H 10350 4000 50  0000 C CNN
F 2 "new_board_v3:WT12-nopins" H 10100 4000 50  0001 C CNN
F 3 "" H 10100 4000 50  0001 C CNN
	1    10100 3900
	1    0    0    -1  
$EndComp
$Comp
L New_Library:MC74VHC1G04 U13
U 1 1 5E769963
P 11900 4200
F 0 "U13" H 12344 3996 50  0000 L CNN
F 1 "MC74VHC1G04" H 12344 3905 50  0000 L CNN
F 2 "Package_TO_SOT_SMD:SOT-353_SC-70-5_Handsoldering" H 11900 4350 50  0001 C CNN
F 3 "" H 11900 4350 50  0001 C CNN
	1    11900 4200
	-1   0    0    1   
$EndComp
Wire Wire Line
	12300 3950 12200 3950
Wire Wire Line
	10500 3950 11500 3950
$Comp
L power:+3V3 #PWR0103
U 1 1 5E790698
P 11900 3600
F 0 "#PWR0103" H 11900 3450 50  0001 C CNN
F 1 "+3V3" H 11915 3773 50  0000 C CNN
F 2 "" H 11900 3600 50  0001 C CNN
F 3 "" H 11900 3600 50  0001 C CNN
	1    11900 3600
	1    0    0    -1  
$EndComp
Wire Wire Line
	11900 3700 11900 3600
$Comp
L power:GND #PWR0104
U 1 1 5E79D6D1
P 11900 4350
F 0 "#PWR0104" H 11900 4100 50  0001 C CNN
F 1 "GND" H 11905 4177 50  0000 C CNN
F 2 "" H 11900 4350 50  0001 C CNN
F 3 "" H 11900 4350 50  0001 C CNN
	1    11900 4350
	1    0    0    -1  
$EndComp
Wire Wire Line
	11900 4350 11900 4200
Wire Wire Line
	7050 2850 7100 2850
Wire Wire Line
	7100 2850 7100 2550
Connection ~ 7100 2550
Wire Wire Line
	6450 2950 6450 2850
$Comp
L Device:Q_NMOS_GSD Q2
U 1 1 5ED94F88
P 5650 2600
F 0 "Q2" H 5855 2646 50  0000 L CNN
F 1 "L2N7002LT1G" H 5855 2555 50  0000 L CNN
F 2 "Package_TO_SOT_SMD:SOT-23" H 5850 2700 50  0001 C CNN
F 3 "~" H 5650 2600 50  0001 C CNN
	1    5650 2600
	1    0    0    -1  
$EndComp
Wire Wire Line
	5600 2250 5750 2250
Wire Wire Line
	5750 2250 5750 2400
Connection ~ 6450 2950
Wire Wire Line
	6450 2850 6450 2550
Connection ~ 6450 2850
$Comp
L Device:C_Small C2
U 1 1 5EE118DD
P 6450 3200
F 0 "C2" V 6221 3200 50  0000 C CNN
F 1 "4uF7" V 6312 3200 50  0000 C CNN
F 2 "Capacitor_SMD:C_0603_1608Metric_Pad1.05x0.95mm_HandSolder" H 6450 3200 50  0001 C CNN
F 3 "~" H 6450 3200 50  0001 C CNN
	1    6450 3200
	-1   0    0    1   
$EndComp
Wire Wire Line
	6450 3300 6450 3350
Wire Wire Line
	6450 3350 6750 3350
Wire Wire Line
	6450 3100 6450 2950
$Comp
L Device:C_Small C1
U 1 1 5EE2EBC1
P 6400 4250
F 0 "C1" V 6171 4250 50  0000 C CNN
F 1 "4uF7" V 6262 4250 50  0000 C CNN
F 2 "Capacitor_SMD:C_0603_1608Metric_Pad1.05x0.95mm_HandSolder" H 6400 4250 50  0001 C CNN
F 3 "~" H 6400 4250 50  0001 C CNN
	1    6400 4250
	-1   0    0    1   
$EndComp
Wire Wire Line
	6350 4000 6400 4000
Wire Wire Line
	6400 4350 6400 4400
Wire Wire Line
	6400 4400 6750 4400
Wire Wire Line
	6400 4150 6400 4000
Connection ~ 6400 4000
Wire Wire Line
	6400 4000 6450 4000
Wire Wire Line
	7550 2950 7550 3050
Wire Wire Line
	7050 2950 7550 2950
Wire Wire Line
	7550 2850 7550 2950
Connection ~ 7550 2950
Wire Wire Line
	7550 2650 7550 2550
Connection ~ 7550 2550
Wire Wire Line
	6750 3350 7550 3350
Wire Wire Line
	7550 3350 7550 3250
Wire Wire Line
	7550 2550 7850 2550
Wire Wire Line
	7850 2550 7850 2600
$Comp
L Device:R_Small R12
U 1 1 5EB12324
P 7400 4000
F 0 "R12" V 7204 4000 50  0000 C CNN
F 1 "9k09" V 7295 4000 50  0000 C CNN
F 2 "Resistor_SMD:R_0805_2012Metric_Pad1.15x1.40mm_HandSolder" H 7400 4000 50  0001 C CNN
F 3 "~" H 7400 4000 50  0001 C CNN
	1    7400 4000
	0    -1   -1   0   
$EndComp
Wire Wire Line
	7600 4000 7600 3900
Wire Wire Line
	7500 4000 7600 4000
Wire Wire Line
	7350 3900 7600 3900
Wire Wire Line
	7600 4150 7600 4000
Connection ~ 7600 4000
Wire Wire Line
	7150 4400 7600 4400
Wire Wire Line
	7600 4400 7600 4350
Connection ~ 7150 4400
Wire Wire Line
	6450 2550 6650 2550
Wire Wire Line
	6850 2550 7100 2550
$Comp
L Jumper:Jumper_3_Open JP2
U 1 1 5EFDB88D
P 5750 2950
F 0 "JP2" H 5750 3081 50  0000 C CNN
F 1 "Jumper_3_Open" H 5750 3172 50  0000 C CNN
F 2 "Jumper:SolderJumper-3_P1.3mm_Bridged12_Pad1.0x1.5mm" H 5750 2950 50  0001 C CNN
F 3 "~" H 5750 2950 50  0001 C CNN
	1    5750 2950
	-1   0    0    1   
$EndComp
Wire Wire Line
	6000 2950 6450 2950
$Comp
L power:+5V #PWR0106
U 1 1 5F018E06
P 5300 2900
F 0 "#PWR0106" H 5300 2750 50  0001 C CNN
F 1 "+5V" H 5315 3073 50  0000 C CNN
F 2 "" H 5300 2900 50  0001 C CNN
F 3 "" H 5300 2900 50  0001 C CNN
	1    5300 2900
	1    0    0    -1  
$EndComp
Wire Wire Line
	5300 2900 5300 2950
Wire Wire Line
	5300 2950 5500 2950
Text Notes 4700 3550 0    50   ~ 0
The chips on the keyboard *can* operate\non 3 volts, so with this jumper it's\npossible to bypass the 5V pover supply
$Comp
L Device:C_Small C8
U 1 1 5F09CECB
P 4700 4700
F 0 "C8" H 4792 4746 50  0000 L CNN
F 1 "100nF" H 4792 4655 50  0000 L CNN
F 2 "Capacitor_SMD:C_0603_1608Metric_Pad1.05x0.95mm_HandSolder" H 4700 4700 50  0001 C CNN
F 3 "~" H 4700 4700 50  0001 C CNN
	1    4700 4700
	1    0    0    -1  
$EndComp
$Comp
L Device:C_Small C9
U 1 1 5F09DCBC
P 5200 4700
F 0 "C9" H 5292 4746 50  0000 L CNN
F 1 "100nF" H 5292 4655 50  0000 L CNN
F 2 "Capacitor_SMD:C_0603_1608Metric_Pad1.05x0.95mm_HandSolder" H 5200 4700 50  0001 C CNN
F 3 "~" H 5200 4700 50  0001 C CNN
	1    5200 4700
	1    0    0    -1  
$EndComp
$Comp
L power:GND #PWR0107
U 1 1 5F09E10C
P 4700 4850
F 0 "#PWR0107" H 4700 4600 50  0001 C CNN
F 1 "GND" H 4705 4677 50  0000 C CNN
F 2 "" H 4700 4850 50  0001 C CNN
F 3 "" H 4700 4850 50  0001 C CNN
	1    4700 4850
	1    0    0    -1  
$EndComp
Wire Wire Line
	4700 4850 4700 4800
$Comp
L power:GND #PWR0108
U 1 1 5F0AD5DD
P 5200 4850
F 0 "#PWR0108" H 5200 4600 50  0001 C CNN
F 1 "GND" H 5205 4677 50  0000 C CNN
F 2 "" H 5200 4850 50  0001 C CNN
F 3 "" H 5200 4850 50  0001 C CNN
	1    5200 4850
	1    0    0    -1  
$EndComp
Wire Wire Line
	5200 4850 5200 4800
$Comp
L power:+3V3 #PWR0109
U 1 1 5F0BCBFD
P 4700 4500
F 0 "#PWR0109" H 4700 4350 50  0001 C CNN
F 1 "+3V3" H 4715 4673 50  0000 C CNN
F 2 "" H 4700 4500 50  0001 C CNN
F 3 "" H 4700 4500 50  0001 C CNN
	1    4700 4500
	1    0    0    -1  
$EndComp
Wire Wire Line
	4700 4600 4700 4500
$Comp
L power:+3V3 #PWR0110
U 1 1 5F0CC6AB
P 5200 4500
F 0 "#PWR0110" H 5200 4350 50  0001 C CNN
F 1 "+3V3" H 5215 4673 50  0000 C CNN
F 2 "" H 5200 4500 50  0001 C CNN
F 3 "" H 5200 4500 50  0001 C CNN
	1    5200 4500
	1    0    0    -1  
$EndComp
Wire Wire Line
	5200 4500 5200 4600
Wire Wire Line
	13250 3850 13350 3850
Wire Wire Line
	13350 3850 13450 3850
Connection ~ 13350 3850
Connection ~ 13450 3850
Wire Wire Line
	13450 3850 13550 3850
Connection ~ 13550 3850
Wire Wire Line
	13550 3850 14000 3850
$Comp
L Connector:TestPoint TP12
U 1 1 5EE1E459
P 13150 4500
F 0 "TP12" V 13104 4688 50  0000 L CNN
F 1 "+3V3" V 13195 4688 50  0000 L CNN
F 2 "TestPoint:TestPoint_Pad_1.5x1.5mm" H 13350 4500 50  0001 C CNN
F 3 "~" H 13350 4500 50  0001 C CNN
	1    13150 4500
	0    -1   -1   0   
$EndComp
Connection ~ 13300 4500
Wire Wire Line
	13300 4500 13300 4800
Wire Wire Line
	13150 4500 13300 4500
NoConn ~ 9700 4950
NoConn ~ 9700 4850
NoConn ~ 13200 8250
NoConn ~ 13200 7850
$Comp
L Connector:Conn_01x07_Male J6
U 1 1 5EEACF3C
P 13400 8050
F 0 "J6" H 13372 8074 50  0000 R CNN
F 1 "Conn_01x07_Male" H 13372 7983 50  0000 R CNN
F 2 "Connector_PinHeader_2.54mm:PinHeader_1x07_P2.54mm_Horizontal" H 13400 8050 50  0001 C CNN
F 3 "~" H 13400 8050 50  0001 C CNN
	1    13400 8050
	-1   0    0    -1  
$EndComp
$Comp
L Connector:Conn_01x01_Male J7
U 1 1 5EEB1111
P 13400 8600
F 0 "J7" H 13372 8532 50  0000 R CNN
F 1 "Conn_01x01_Male" H 13372 8623 50  0000 R CNN
F 2 "Connector_PinHeader_2.54mm:PinHeader_1x01_P2.54mm_Horizontal" H 13400 8600 50  0001 C CNN
F 3 "~" H 13400 8600 50  0001 C CNN
	1    13400 8600
	-1   0    0    1   
$EndComp
$Comp
L Connector:Conn_01x01_Male J8
U 1 1 5EEB5279
P 13400 8900
F 0 "J8" H 13372 8832 50  0000 R CNN
F 1 "Conn_01x01_Male" H 13372 8923 50  0000 R CNN
F 2 "Connector_PinHeader_2.54mm:PinHeader_1x01_P2.54mm_Horizontal" H 13400 8900 50  0001 C CNN
F 3 "~" H 13400 8900 50  0001 C CNN
	1    13400 8900
	-1   0    0    1   
$EndComp
$Comp
L Connector:Conn_01x09_Female J9
U 1 1 5EEB7ED4
P 15000 7800
F 0 "J9" H 14892 7175 50  0000 C CNN
F 1 "Conn_01x09_Female" H 14892 7266 50  0000 C CNN
F 2 "Connector_PinSocket_2.54mm:PinSocket_1x09_P2.54mm_Horizontal" H 15000 7800 50  0001 C CNN
F 3 "~" H 15000 7800 50  0001 C CNN
	1    15000 7800
	1    0    0    1   
$EndComp
$Comp
L Connector:Conn_01x08_Female J10
U 1 1 5EEE079A
P 15000 9000
F 0 "J10" H 14892 8375 50  0000 C CNN
F 1 "Conn_01x08_Female" H 14892 8466 50  0000 C CNN
F 2 "Connector_PinSocket_2.54mm:PinSocket_1x08_P2.54mm_Horizontal" H 15000 9000 50  0001 C CNN
F 3 "~" H 15000 9000 50  0001 C CNN
	1    15000 9000
	1    0    0    1   
$EndComp
Wire Notes Line
	12050 7050 12050 9400
Wire Notes Line
	12050 9400 15450 9400
Wire Notes Line
	15450 9400 15450 7050
Wire Notes Line
	15450 7050 12050 7050
Text Notes 12100 7200 0    50   ~ 0
Aranged as a wide DIP-40 package footprint
Text Notes 13600 4750 0    50   ~ 0
*NO STUFF
Text GLabel 4500 1300 0    50   Input ~ 0
VBUS5
Wire Wire Line
	9000 1100 9000 950 
Wire Wire Line
	7900 950  7900 1000
Wire Wire Line
	7900 850  7900 950 
Connection ~ 7900 950 
Wire Wire Line
	9000 950  7900 950 
Connection ~ 7900 850 
Wire Wire Line
	8000 850  7900 850 
Text GLabel 8000 850  2    50   Input ~ 0
P4VSTBY
NoConn ~ 13200 8350
$Comp
L Device:C_Small C10
U 1 1 5F3C1082
P 7950 4250
F 0 "C10" V 7721 4250 50  0000 C CNN
F 1 "22uF" V 7812 4250 50  0000 C CNN
F 2 "Capacitor_SMD:C_0805_2012Metric_Pad1.15x1.40mm_HandSolder" H 7950 4250 50  0001 C CNN
F 3 "~" H 7950 4250 50  0001 C CNN
	1    7950 4250
	-1   0    0    1   
$EndComp
Wire Wire Line
	7600 4400 7950 4400
Wire Wire Line
	7950 4400 7950 4350
Connection ~ 7600 4400
Wire Wire Line
	7950 4150 7950 4000
Wire Wire Line
	7950 4000 7600 4000
$Comp
L Device:C_Small C11
U 1 1 5F3E0DB5
P 8250 2700
F 0 "C11" V 8021 2700 50  0000 C CNN
F 1 "22uF" V 8112 2700 50  0000 C CNN
F 2 "Capacitor_SMD:C_0805_2012Metric_Pad1.15x1.40mm_HandSolder" H 8250 2700 50  0001 C CNN
F 3 "~" H 8250 2700 50  0001 C CNN
	1    8250 2700
	-1   0    0    1   
$EndComp
Wire Wire Line
	7850 2800 8250 2800
Wire Wire Line
	8250 2600 8250 2550
Wire Wire Line
	8250 2550 7850 2550
Connection ~ 7850 2550
Wire Wire Line
	7850 2800 7850 3350
Wire Wire Line
	7850 3350 7550 3350
Connection ~ 7850 2800
Connection ~ 7550 3350
$Comp
L power:GND #PWR0105
U 1 1 5F4DC448
P 2800 1050
F 0 "#PWR0105" H 2800 800 50  0001 C CNN
F 1 "GND" H 2805 877 50  0000 C CNN
F 2 "" H 2800 1050 50  0001 C CNN
F 3 "" H 2800 1050 50  0001 C CNN
	1    2800 1050
	1    0    0    -1  
$EndComp
Wire Wire Line
	2800 1000 2800 1050
Wire Wire Line
	2050 1000 2800 1000
Wire Wire Line
	2350 1200 2050 1200
$Comp
L power:+3V3 #PWR0111
U 1 1 5F553862
P 2400 700
F 0 "#PWR0111" H 2400 550 50  0001 C CNN
F 1 "+3V3" H 2415 873 50  0000 C CNN
F 2 "" H 2400 700 50  0001 C CNN
F 3 "" H 2400 700 50  0001 C CNN
	1    2400 700 
	1    0    0    -1  
$EndComp
Wire Wire Line
	2050 800  2400 800 
Wire Wire Line
	2400 800  2400 700 
Text GLabel 2750 4250 2    50   Input ~ 0
SWCLK
NoConn ~ 2750 4950
Text GLabel 2750 4850 2    50   Input ~ 0
SWO
Text GLabel 2750 4150 2    50   Input ~ 0
SWDIO
NoConn ~ 2750 4350
Wire Wire Line
	10150 1550 10850 1550
$Comp
L Device:C_Small C12
U 1 1 5F64D30D
P 4200 4700
F 0 "C12" H 4292 4746 50  0000 L CNN
F 1 "100nF" H 4292 4655 50  0000 L CNN
F 2 "Capacitor_SMD:C_0603_1608Metric_Pad1.05x0.95mm_HandSolder" H 4200 4700 50  0001 C CNN
F 3 "~" H 4200 4700 50  0001 C CNN
	1    4200 4700
	1    0    0    -1  
$EndComp
$Comp
L power:GND #PWR0112
U 1 1 5F64D317
P 4200 4850
F 0 "#PWR0112" H 4200 4600 50  0001 C CNN
F 1 "GND" H 4205 4677 50  0000 C CNN
F 2 "" H 4200 4850 50  0001 C CNN
F 3 "" H 4200 4850 50  0001 C CNN
	1    4200 4850
	1    0    0    -1  
$EndComp
Wire Wire Line
	4200 4850 4200 4800
$Comp
L power:+3V3 #PWR0113
U 1 1 5F64D322
P 4200 4500
F 0 "#PWR0113" H 4200 4350 50  0001 C CNN
F 1 "+3V3" H 4215 4673 50  0000 C CNN
F 2 "" H 4200 4500 50  0001 C CNN
F 3 "" H 4200 4500 50  0001 C CNN
	1    4200 4500
	1    0    0    -1  
$EndComp
Wire Wire Line
	4200 4500 4200 4600
$Comp
L Device:R_Small R8
U 1 1 5F675B81
P 2950 4650
F 0 "R8" V 2754 4650 50  0000 C CNN
F 1 "1k" V 2845 4650 50  0000 C CNN
F 2 "Resistor_SMD:R_0805_2012Metric_Pad1.15x1.40mm_HandSolder" H 2950 4650 50  0001 C CNN
F 3 "~" H 2950 4650 50  0001 C CNN
	1    2950 4650
	0    1    1    0   
$EndComp
Wire Wire Line
	2750 4650 2850 4650
$Comp
L Device:LED_Small D4
U 1 1 5F6992F7
P 3700 4500
F 0 "D4" H 3700 4295 50  0000 C CNN
F 1 "LED_Small" H 3700 4386 50  0000 C CNN
F 2 "LED_SMD:LED_0603_1608Metric_Pad1.05x0.95mm_HandSolder" V 3700 4500 50  0001 C CNN
F 3 "~" V 3700 4500 50  0001 C CNN
	1    3700 4500
	0    -1   -1   0   
$EndComp
Wire Wire Line
	3700 4650 3700 4600
Wire Wire Line
	3050 4650 3700 4650
$Comp
L power:+3V3 #PWR0114
U 1 1 5F6AC88B
P 3700 4300
F 0 "#PWR0114" H 3700 4150 50  0001 C CNN
F 1 "+3V3" H 3715 4473 50  0000 C CNN
F 2 "" H 3700 4300 50  0001 C CNN
F 3 "" H 3700 4300 50  0001 C CNN
	1    3700 4300
	1    0    0    -1  
$EndComp
Wire Wire Line
	3700 4300 3700 4400
$Comp
L power:+5V #PWR0115
U 1 1 5FCD2C3A
P 5000 6500
F 0 "#PWR0115" H 5000 6350 50  0001 C CNN
F 1 "+5V" H 5015 6673 50  0000 C CNN
F 2 "" H 5000 6500 50  0001 C CNN
F 3 "" H 5000 6500 50  0001 C CNN
	1    5000 6500
	1    0    0    -1  
$EndComp
$Comp
L power:GND #PWR0116
U 1 1 5FCD3357
P 5000 7500
F 0 "#PWR0116" H 5000 7250 50  0001 C CNN
F 1 "GND" H 5005 7327 50  0000 C CNN
F 2 "" H 5000 7500 50  0001 C CNN
F 3 "" H 5000 7500 50  0001 C CNN
	1    5000 7500
	1    0    0    -1  
$EndComp
Text GLabel 10800 6800 2    50   Input ~ 0
KSDMUXA_B
Text GLabel 10800 7700 2    50   Input ~ 0
KSDMUXB_B
Text GLabel 10800 8600 2    50   Input ~ 0
KSDMUXC_B
Text GLabel 13200 7950 0    50   Input ~ 0
KSDMUXA_B
Text GLabel 13200 8050 0    50   Input ~ 0
KSDMUXB_B
Text GLabel 13200 8150 0    50   Input ~ 0
KSDMUXC_B
Text GLabel 8500 6800 0    50   Input ~ 0
SRDATA
Text GLabel 9100 6800 2    50   Input ~ 0
SRDATA_B
Text GLabel 8800 7050 3    50   Input ~ 0
SRDATA_EN
Text GLabel 2750 4550 2    50   Input ~ 0
SRDATA_EN
$Comp
L 74xx:74LS126 U5
U 1 1 5FE60DA6
P 8800 6800
F 0 "U5" H 8800 7117 50  0000 C CNN
F 1 "74LS126" H 8800 7026 50  0000 C CNN
F 2 "Package_SO:TSSOP-14_4.4x5mm_P0.65mm" H 8800 6800 50  0001 C CNN
F 3 "http://www.ti.com/lit/gpn/sn74LS126" H 8800 6800 50  0001 C CNN
	1    8800 6800
	1    0    0    -1  
$EndComp
$Comp
L 74xx:74LS126 U5
U 2 1 5FE62ED0
P 10500 6800
F 0 "U5" H 10500 7117 50  0000 C CNN
F 1 "74LS126" H 10500 7026 50  0000 C CNN
F 2 "Package_SO:TSSOP-14_4.4x5mm_P0.65mm" H 10500 6800 50  0001 C CNN
F 3 "http://www.ti.com/lit/gpn/sn74LS126" H 10500 6800 50  0001 C CNN
	2    10500 6800
	1    0    0    -1  
$EndComp
$Comp
L 74xx:74LS126 U5
U 3 1 5FE6513A
P 10500 7700
F 0 "U5" H 10500 8017 50  0000 C CNN
F 1 "74LS126" H 10500 7926 50  0000 C CNN
F 2 "Package_SO:TSSOP-14_4.4x5mm_P0.65mm" H 10500 7700 50  0001 C CNN
F 3 "http://www.ti.com/lit/gpn/sn74LS126" H 10500 7700 50  0001 C CNN
	3    10500 7700
	1    0    0    -1  
$EndComp
$Comp
L 74xx:74LS126 U5
U 4 1 5FE67487
P 10500 8600
F 0 "U5" H 10500 8917 50  0000 C CNN
F 1 "74LS126" H 10500 8826 50  0000 C CNN
F 2 "Package_SO:TSSOP-14_4.4x5mm_P0.65mm" H 10500 8600 50  0001 C CNN
F 3 "http://www.ti.com/lit/gpn/sn74LS126" H 10500 8600 50  0001 C CNN
	4    10500 8600
	1    0    0    -1  
$EndComp
$Comp
L 74xx:74LS126 U5
U 5 1 5FE6BFE5
P 5000 7000
F 0 "U5" H 5230 7046 50  0000 L CNN
F 1 "74LS126" H 5230 6955 50  0000 L CNN
F 2 "Package_SO:TSSOP-14_4.4x5mm_P0.65mm" H 5000 7000 50  0001 C CNN
F 3 "http://www.ti.com/lit/gpn/sn74LS126" H 5000 7000 50  0001 C CNN
	5    5000 7000
	1    0    0    -1  
$EndComp
$Comp
L power:+5V #PWR0117
U 1 1 5FEE0E01
P 10500 7050
F 0 "#PWR0117" H 10500 6900 50  0001 C CNN
F 1 "+5V" H 10515 7223 50  0000 C CNN
F 2 "" H 10500 7050 50  0001 C CNN
F 3 "" H 10500 7050 50  0001 C CNN
	1    10500 7050
	-1   0    0    1   
$EndComp
$Comp
L power:+5V #PWR0118
U 1 1 5FEF3E93
P 10500 7950
F 0 "#PWR0118" H 10500 7800 50  0001 C CNN
F 1 "+5V" H 10515 8123 50  0000 C CNN
F 2 "" H 10500 7950 50  0001 C CNN
F 3 "" H 10500 7950 50  0001 C CNN
	1    10500 7950
	-1   0    0    1   
$EndComp
$Comp
L power:+5V #PWR0119
U 1 1 5FEF4382
P 10500 8850
F 0 "#PWR0119" H 10500 8700 50  0001 C CNN
F 1 "+5V" H 10515 9023 50  0000 C CNN
F 2 "" H 10500 8850 50  0001 C CNN
F 3 "" H 10500 8850 50  0001 C CNN
	1    10500 8850
	-1   0    0    1   
$EndComp
NoConn ~ 2750 4750
$EndSCHEMATC
