EESchema Schematic File Version 4
EELAYER 29 0
EELAYER END
$Descr A4 11693 8268
encoding utf-8
Sheet 1 1
Title ""
Date ""
Rev ""
Comp ""
Comment1 ""
Comment2 ""
Comment3 ""
Comment4 ""
$EndDescr
$Comp
L Connector:Conn_01x04_Male J2
U 1 1 5CE78FCD
P 2050 1050
F 0 "J2" H 2022 1024 50  0000 R CNN
F 1 "Conn_01x04_Male" H 2022 933 50  0000 R CNN
F 2 "Connector_PinHeader_2.54mm:PinHeader_1x04_P2.54mm_Vertical" H 2050 1050 50  0001 C CNN
F 3 "~" H 2050 1050 50  0001 C CNN
	1    2050 1050
	-1   0    0    -1  
$EndComp
$Comp
L power:GND #PWR04
U 1 1 5CE79D3D
P 1700 1325
F 0 "#PWR04" H 1700 1075 50  0001 C CNN
F 1 "GND" H 1705 1152 50  0000 C CNN
F 2 "" H 1700 1325 50  0001 C CNN
F 3 "" H 1700 1325 50  0001 C CNN
	1    1700 1325
	1    0    0    -1  
$EndComp
Wire Wire Line
	1700 1325 1700 1250
Wire Wire Line
	1700 1250 1850 1250
$Comp
L power:+5V #PWR03
U 1 1 5CE7ACA2
P 1700 825
F 0 "#PWR03" H 1700 675 50  0001 C CNN
F 1 "+5V" H 1715 998 50  0000 C CNN
F 2 "" H 1700 825 50  0001 C CNN
F 3 "" H 1700 825 50  0001 C CNN
	1    1700 825 
	1    0    0    -1  
$EndComp
Wire Wire Line
	1700 825  1700 950 
Wire Wire Line
	1700 950  1850 950 
$Comp
L Connector:USB_B_Micro J1
U 1 1 5CE7B367
P 950 1050
F 0 "J1" H 1007 1517 50  0000 C CNN
F 1 "USB_B_Micro" H 1007 1426 50  0000 C CNN
F 2 "Connector_USB:USB_Micro-B_Molex-105017-0001" H 1100 1000 50  0001 C CNN
F 3 "~" H 1100 1000 50  0001 C CNN
	1    950  1050
	1    0    0    -1  
$EndComp
Text GLabel 1850 1050 0    50   Input ~ 0
D+
Text GLabel 1850 1150 0    50   Input ~ 0
D-
Text GLabel 1250 1150 2    50   Input ~ 0
D-
Text GLabel 1250 1050 2    50   Input ~ 0
D+
NoConn ~ 1250 1250
Wire Wire Line
	850  1450 950  1450
$Comp
L power:GND #PWR01
U 1 1 5CE7E256
P 950 1500
F 0 "#PWR01" H 950 1250 50  0001 C CNN
F 1 "GND" H 955 1327 50  0000 C CNN
F 2 "" H 950 1500 50  0001 C CNN
F 3 "" H 950 1500 50  0001 C CNN
	1    950  1500
	1    0    0    -1  
$EndComp
Wire Wire Line
	950  1500 950  1450
Connection ~ 950  1450
$Comp
L power:+5V #PWR02
U 1 1 5CE7E473
P 1350 775
F 0 "#PWR02" H 1350 625 50  0001 C CNN
F 1 "+5V" H 1365 948 50  0000 C CNN
F 2 "" H 1350 775 50  0001 C CNN
F 3 "" H 1350 775 50  0001 C CNN
	1    1350 775 
	1    0    0    -1  
$EndComp
Wire Wire Line
	1350 775  1350 850 
Wire Wire Line
	1350 850  1250 850 
$Comp
L Device:R_Small R1
U 1 1 5CE7F60F
P 1425 1875
F 0 "R1" V 1621 1875 50  0000 C CNN
F 1 "10k" V 1530 1875 50  0000 C CNN
F 2 "Resistor_SMD:R_0805_2012Metric" H 1425 1875 50  0001 C CNN
F 3 "~" H 1425 1875 50  0001 C CNN
	1    1425 1875
	0    -1   -1   0   
$EndComp
$Comp
L power:GND #PWR05
U 1 1 5CE7FD78
P 1175 1900
F 0 "#PWR05" H 1175 1650 50  0001 C CNN
F 1 "GND" H 1180 1727 50  0000 C CNN
F 2 "" H 1175 1900 50  0001 C CNN
F 3 "" H 1175 1900 50  0001 C CNN
	1    1175 1900
	1    0    0    -1  
$EndComp
Wire Wire Line
	1175 1900 1175 1875
Wire Wire Line
	1175 1875 1325 1875
$Comp
L Device:LED D1
U 1 1 5CE8036A
P 1750 1875
F 0 "D1" H 1743 2091 50  0000 C CNN
F 1 "LED" H 1743 2000 50  0000 C CNN
F 2 "LED_SMD:LED_0603_1608Metric" H 1750 1875 50  0001 C CNN
F 3 "~" H 1750 1875 50  0001 C CNN
	1    1750 1875
	1    0    0    -1  
$EndComp
Wire Wire Line
	1600 1875 1525 1875
$Comp
L power:+5V #PWR06
U 1 1 5CE8067A
P 1975 1825
F 0 "#PWR06" H 1975 1675 50  0001 C CNN
F 1 "+5V" H 1990 1998 50  0000 C CNN
F 2 "" H 1975 1825 50  0001 C CNN
F 3 "" H 1975 1825 50  0001 C CNN
	1    1975 1825
	1    0    0    -1  
$EndComp
Wire Wire Line
	1975 1825 1975 1875
Wire Wire Line
	1975 1875 1900 1875
$EndSCHEMATC
