EESchema Schematic File Version 4
EELAYER 30 0
EELAYER END
$Descr A4 11693 8268
encoding utf-8
Sheet 1 1
Title ""
Date ""
Rev ""
Comp ""
Comment1 ""
Comment2 ""
Comment3 ""
Comment4 ""
$EndDescr
$Comp
L keybd-rescue:ATmega16U2-MU-MCU_Microchip_ATmega-keybd-rescue U1
U 1 1 5CC49692
P 4150 3200
F 0 "U1" H 3700 1850 50  0000 C CNN
F 1 "ATmega16U2-MU" H 4550 1850 50  0000 C CNN
F 2 "Package_DFN_QFN:QFN-32-1EP_5x5mm_P0.5mm_EP3.1x3.1mm" H 4150 3200 50  0001 C CIN
F 3 "http://ww1.microchip.com/downloads/en/DeviceDoc/doc7799.pdf" H 4150 3200 50  0001 C CNN
	1    4150 3200
	1    0    0    -1  
$EndComp
$Comp
L Connector:Conn_01x04_Male J4
U 1 1 5CC4AEE2
P 1200 2300
F 0 "J4" H 1308 2581 50  0000 C CNN
F 1 "CONN-A" H 1308 2490 50  0000 C CNN
F 2 "Connector_PinHeader_2.54mm:PinHeader_1x04_P2.54mm_Vertical" H 1200 2300 50  0001 C CNN
F 3 "~" H 1200 2300 50  0001 C CNN
	1    1200 2300
	-1   0    0    1   
$EndComp
$Comp
L Device:Fuse_Small F1
U 1 1 5CC50B5E
P 850 2100
F 0 "F1" H 850 2285 50  0000 C CNN
F 1 "1A" H 850 2194 50  0000 C CNN
F 2 "Fuse:Fuse_1206_3216Metric" H 850 2100 50  0001 C CNN
F 3 "~" H 850 2100 50  0001 C CNN
	1    850  2100
	1    0    0    -1  
$EndComp
$Comp
L Device:Crystal_GND24_Small Y1
U 1 1 5CC514F4
P 3050 2450
F 0 "Y1" H 3050 2675 50  0000 C CNN
F 1 "16Mhz" H 3050 2584 50  0000 C CNN
F 2 "Crystal:Crystal_SMD_3225-4Pin_3.2x2.5mm" H 3050 2450 50  0001 C CNN
F 3 "~" H 3050 2450 50  0001 C CNN
	1    3050 2450
	0    -1   -1   0   
$EndComp
Text GLabel 9950 900  0    50   Input ~ 0
SRDATA
Text GLabel 9950 1100 0    50   Input ~ 0
KSDMUXA
Text GLabel 9950 1200 0    50   Input ~ 0
KSDMUXB
Text GLabel 9950 1300 0    50   Input ~ 0
KSDMUXC
Text GLabel 9950 1500 0    50   Input ~ 0
EXT_RESET
$Comp
L power:GND #PWR022
U 1 1 5CC4F55C
P 9850 2700
F 0 "#PWR022" H 9850 2450 50  0001 C CNN
F 1 "GND" H 9855 2527 50  0000 C CNN
F 2 "" H 9850 2700 50  0001 C CNN
F 3 "" H 9850 2700 50  0001 C CNN
	1    9850 2700
	1    0    0    -1  
$EndComp
Wire Wire Line
	9850 2700 9850 2600
Wire Wire Line
	9850 2600 9950 2600
Text GLabel 9950 2300 0    50   Input ~ 0
SRCLK
NoConn ~ 9950 2500
NoConn ~ 9950 2400
NoConn ~ 9950 2200
NoConn ~ 9950 2100
NoConn ~ 9950 2000
NoConn ~ 9950 1900
NoConn ~ 9950 1800
NoConn ~ 9950 1700
NoConn ~ 9950 1600
NoConn ~ 9950 1400
NoConn ~ 9950 1000
NoConn ~ 9950 800 
NoConn ~ 9950 700 
$Comp
L power:+5V #PWR025
U 1 1 5CC50185
P 10800 650
F 0 "#PWR025" H 10800 500 50  0001 C CNN
F 1 "+5V" H 10815 823 50  0000 C CNN
F 2 "" H 10800 650 50  0001 C CNN
F 3 "" H 10800 650 50  0001 C CNN
	1    10800 650 
	1    0    0    -1  
$EndComp
Wire Wire Line
	10800 650  10800 700 
Wire Wire Line
	10800 700  10750 700 
Text GLabel 10750 800  2    50   Input ~ 0
KD18
Text GLabel 10750 900  2    50   Input ~ 0
KD17
Text GLabel 10750 1000 2    50   Input ~ 0
KD16
Text GLabel 10750 1100 2    50   Input ~ 0
KD15
Text GLabel 10750 1200 2    50   Input ~ 0
KD14
Text GLabel 10750 1300 2    50   Input ~ 0
KD13
Text GLabel 10750 1400 2    50   Input ~ 0
KD12
Text GLabel 10750 1500 2    50   Input ~ 0
KD11
$Comp
L keybd-rescue:DIP40-dummy-Device-keybd-rescue U5
U 1 1 5CC4E3A5
P 10350 550
F 0 "U5" H 10350 625 50  0000 C CNN
F 1 "DIP40-dummy" H 10350 534 50  0000 C CNN
F 2 "Package_DIP:DIP-40_W15.24mm" H 10050 550 50  0001 C CNN
F 3 "" H 10050 550 50  0001 C CNN
	1    10350 550 
	1    0    0    -1  
$EndComp
NoConn ~ 10750 1600
NoConn ~ 10750 1700
NoConn ~ 10750 1800
Text GLabel 10750 1900 2    50   Input ~ 0
KD03
Text GLabel 10750 2000 2    50   Input ~ 0
KD04
Text GLabel 10750 2100 2    50   Input ~ 0
KD05
Text GLabel 10750 2200 2    50   Input ~ 0
KD06
Text GLabel 10750 2300 2    50   Input ~ 0
KD07
Text GLabel 10750 2400 2    50   Input ~ 0
KD08
Text GLabel 10750 2500 2    50   Input ~ 0
KD09
Text GLabel 10750 2600 2    50   Input ~ 0
KD10
Text GLabel 3450 2100 0    50   Input ~ 0
EXT_RESET
$Comp
L Device:Jumper_NO_Small JP1
U 1 1 5CC5EB81
P 8850 800
F 0 "JP1" H 8850 985 50  0000 C CNN
F 1 "USE_PS2" H 8850 894 50  0000 C CNN
F 2 "Connector_PinSocket_2.00mm:PinSocket_1x02_P2.00mm_Vertical" H 8850 800 50  0001 C CNN
F 3 "~" H 8850 800 50  0001 C CNN
	1    8850 800 
	1    0    0    -1  
$EndComp
Text GLabel 8550 800  0    50   Input ~ 0
USE_PS2
Wire Wire Line
	8550 800  8650 800 
$Comp
L Device:R_Small R3
U 1 1 5CC60582
P 8650 1000
F 0 "R3" H 8709 1046 50  0000 L CNN
F 1 "1k" H 8709 955 50  0000 L CNN
F 2 "Resistor_SMD:R_0805_2012Metric_Pad1.15x1.40mm_HandSolder" H 8650 1000 50  0001 C CNN
F 3 "~" H 8650 1000 50  0001 C CNN
	1    8650 1000
	1    0    0    -1  
$EndComp
Wire Wire Line
	8650 900  8650 800 
Connection ~ 8650 800 
Wire Wire Line
	8650 800  8750 800 
$Comp
L power:GND #PWR020
U 1 1 5CC60A62
P 8650 1150
F 0 "#PWR020" H 8650 900 50  0001 C CNN
F 1 "GND" H 8655 977 50  0000 C CNN
F 2 "" H 8650 1150 50  0001 C CNN
F 3 "" H 8650 1150 50  0001 C CNN
	1    8650 1150
	1    0    0    -1  
$EndComp
Wire Wire Line
	8650 1150 8650 1100
$Comp
L power:+5V #PWR021
U 1 1 5CC60FC9
P 9150 750
F 0 "#PWR021" H 9150 600 50  0001 C CNN
F 1 "+5V" H 9165 923 50  0000 C CNN
F 2 "" H 9150 750 50  0001 C CNN
F 3 "" H 9150 750 50  0001 C CNN
	1    9150 750 
	1    0    0    -1  
$EndComp
Wire Wire Line
	9150 750  9150 800 
Wire Wire Line
	9150 800  8950 800 
Text GLabel 4850 3300 2    50   Input ~ 0
USE_PS2
$Comp
L Device:CP_Small C3
U 1 1 5CC654B8
P 3200 3850
F 0 "C3" H 3288 3896 50  0000 L CNN
F 1 "1uF" H 3288 3805 50  0000 L CNN
F 2 "Capacitor_THT:CP_Radial_D4.0mm_P1.50mm" H 3200 3850 50  0001 C CNN
F 3 "~" H 3200 3850 50  0001 C CNN
	1    3200 3850
	1    0    0    -1  
$EndComp
Wire Wire Line
	3200 3750 3200 3700
Wire Wire Line
	3200 3700 3450 3700
$Comp
L power:GND #PWR08
U 1 1 5CC65C5D
P 3200 4050
F 0 "#PWR08" H 3200 3800 50  0001 C CNN
F 1 "GND" H 3205 3877 50  0000 C CNN
F 2 "" H 3200 4050 50  0001 C CNN
F 3 "" H 3200 4050 50  0001 C CNN
	1    3200 4050
	1    0    0    -1  
$EndComp
Wire Wire Line
	3200 4050 3200 3950
$Comp
L power:GND #PWR09
U 1 1 5CC665A0
P 3350 3150
F 0 "#PWR09" H 3350 2900 50  0001 C CNN
F 1 "GND" H 3355 2977 50  0000 C CNN
F 2 "" H 3350 3150 50  0001 C CNN
F 3 "" H 3350 3150 50  0001 C CNN
	1    3350 3150
	1    0    0    -1  
$EndComp
Wire Wire Line
	4150 1800 4250 1800
$Comp
L Device:C_Small C4
U 1 1 5CC680D6
P 3900 1600
F 0 "C4" V 3671 1600 50  0000 C CNN
F 1 "4uF7" V 3762 1600 50  0000 C CNN
F 2 "Capacitor_SMD:C_0603_1608Metric_Pad1.05x0.95mm_HandSolder" H 3900 1600 50  0001 C CNN
F 3 "~" H 3900 1600 50  0001 C CNN
	1    3900 1600
	0    1    1    0   
$EndComp
Wire Wire Line
	4000 1600 4150 1600
Wire Wire Line
	4150 1600 4150 1800
Connection ~ 4150 1800
$Comp
L power:GND #PWR011
U 1 1 5CC6917C
P 3600 1650
F 0 "#PWR011" H 3600 1400 50  0001 C CNN
F 1 "GND" H 3605 1477 50  0000 C CNN
F 2 "" H 3600 1650 50  0001 C CNN
F 3 "" H 3600 1650 50  0001 C CNN
	1    3600 1650
	1    0    0    -1  
$EndComp
Wire Wire Line
	3600 1650 3600 1600
Wire Wire Line
	3600 1600 3800 1600
$Comp
L power:+5V #PWR012
U 1 1 5CC698B5
P 4150 1500
F 0 "#PWR012" H 4150 1350 50  0001 C CNN
F 1 "+5V" H 4165 1673 50  0000 C CNN
F 2 "" H 4150 1500 50  0001 C CNN
F 3 "" H 4150 1500 50  0001 C CNN
	1    4150 1500
	1    0    0    -1  
$EndComp
Connection ~ 4150 1600
Wire Wire Line
	4150 1500 4150 1600
Text GLabel 3450 3000 0    50   Input ~ 0
DA
Text GLabel 3450 2900 0    50   Input ~ 0
DB
$Comp
L power:GND #PWR02
U 1 1 5CC6B7C4
P 800 2500
F 0 "#PWR02" H 800 2250 50  0001 C CNN
F 1 "GND" H 805 2327 50  0000 C CNN
F 2 "" H 800 2500 50  0001 C CNN
F 3 "" H 800 2500 50  0001 C CNN
	1    800  2500
	1    0    0    -1  
$EndComp
Wire Wire Line
	800  2500 800  2400
Wire Wire Line
	800  2400 1000 2400
Text GLabel 1000 2300 0    50   Input ~ 0
DA
Text GLabel 1000 2200 0    50   Input ~ 0
DB
Wire Wire Line
	3350 3150 3350 3100
Wire Wire Line
	3350 3100 3450 3100
$Comp
L power:+5V #PWR07
U 1 1 5CC6D471
P 2850 2900
F 0 "#PWR07" H 2850 2750 50  0001 C CNN
F 1 "+5V" H 2865 3073 50  0000 C CNN
F 2 "" H 2850 2900 50  0001 C CNN
F 3 "" H 2850 2900 50  0001 C CNN
	1    2850 2900
	1    0    0    -1  
$EndComp
$Comp
L power:+5V #PWR01
U 1 1 5CC7200C
P 650 2000
F 0 "#PWR01" H 650 1850 50  0001 C CNN
F 1 "+5V" H 665 2173 50  0000 C CNN
F 2 "" H 650 2000 50  0001 C CNN
F 3 "" H 650 2000 50  0001 C CNN
	1    650  2000
	1    0    0    -1  
$EndComp
Wire Wire Line
	950  2100 1000 2100
Wire Wire Line
	650  2000 650  2100
Wire Wire Line
	650  2100 750  2100
$Comp
L power:GND #PWR013
U 1 1 5CC80084
P 4150 4600
F 0 "#PWR013" H 4150 4350 50  0001 C CNN
F 1 "GND" H 4155 4427 50  0000 C CNN
F 2 "" H 4150 4600 50  0001 C CNN
F 3 "" H 4150 4600 50  0001 C CNN
	1    4150 4600
	1    0    0    -1  
$EndComp
Text GLabel 4850 3200 2    50   Input ~ 0
SRDATA
Text GLabel 4850 3100 2    50   Input ~ 0
SRCLK
Text GLabel 4850 3600 2    50   Input ~ 0
KSDMUXA
Text GLabel 4850 3700 2    50   Input ~ 0
KSDMUXB
Text GLabel 4850 3800 2    50   Input ~ 0
KSDMUXC
$Comp
L 74xx:74LS251 U2
U 1 1 5CC83B65
P 6750 4700
F 0 "U2" V 6704 5644 50  0000 L CNN
F 1 "74LS251" V 6795 5644 50  0000 L CNN
F 2 "Package_SO:SOIC-16_3.9x9.9mm_P1.27mm" H 6750 4700 50  0001 C CNN
F 3 "http://www.ti.com/lit/gpn/sn74LS251" H 6750 4700 50  0001 C CNN
	1    6750 4700
	0    1    1    0   
$EndComp
$Comp
L 74xx:74LS251 U4
U 1 1 5CC84BB8
P 9150 4700
F 0 "U4" V 9104 5644 50  0000 L CNN
F 1 "74LS251" V 9195 5644 50  0000 L CNN
F 2 "Package_SO:SOIC-16_3.9x9.9mm_P1.27mm" H 9150 4700 50  0001 C CNN
F 3 "http://www.ti.com/lit/gpn/sn74LS251" H 9150 4700 50  0001 C CNN
	1    9150 4700
	0    1    1    0   
$EndComp
Wire Wire Line
	5750 4700 5750 4200
Wire Wire Line
	5750 4200 6050 4200
Wire Wire Line
	8450 4200 8150 4200
Wire Wire Line
	8150 4200 8150 4500
NoConn ~ 7250 5200
NoConn ~ 9650 5200
$Comp
L power:GND #PWR015
U 1 1 5CC8851B
P 5750 4800
F 0 "#PWR015" H 5750 4550 50  0001 C CNN
F 1 "GND" H 5755 4627 50  0000 C CNN
F 2 "" H 5750 4800 50  0001 C CNN
F 3 "" H 5750 4800 50  0001 C CNN
	1    5750 4800
	1    0    0    -1  
$EndComp
Wire Wire Line
	5750 4800 5750 4700
Connection ~ 5750 4700
$Comp
L power:GND #PWR019
U 1 1 5CC894B4
P 8150 4800
F 0 "#PWR019" H 8150 4550 50  0001 C CNN
F 1 "GND" H 8155 4627 50  0000 C CNN
F 2 "" H 8150 4800 50  0001 C CNN
F 3 "" H 8150 4800 50  0001 C CNN
	1    8150 4800
	1    0    0    -1  
$EndComp
Wire Wire Line
	8150 4800 8150 4700
Connection ~ 8150 4700
$Comp
L Device:C_Small C5
U 1 1 5CC8B999
P 7900 4500
F 0 "C5" V 7671 4500 50  0000 C CNN
F 1 "4uF7" V 7762 4500 50  0000 C CNN
F 2 "Capacitor_SMD:C_0603_1608Metric_Pad1.05x0.95mm_HandSolder" H 7900 4500 50  0001 C CNN
F 3 "~" H 7900 4500 50  0001 C CNN
	1    7900 4500
	0    1    1    0   
$EndComp
Wire Wire Line
	7800 4500 7650 4500
Wire Wire Line
	7650 4500 7650 4700
Wire Wire Line
	8000 4500 8150 4500
Connection ~ 8150 4500
Wire Wire Line
	8150 4500 8150 4700
$Comp
L power:+5V #PWR018
U 1 1 5CC8DA9F
P 7650 4400
F 0 "#PWR018" H 7650 4250 50  0001 C CNN
F 1 "+5V" H 7665 4573 50  0000 C CNN
F 2 "" H 7650 4400 50  0001 C CNN
F 3 "" H 7650 4400 50  0001 C CNN
	1    7650 4400
	1    0    0    -1  
$EndComp
Wire Wire Line
	7650 4400 7650 4500
Connection ~ 7650 4500
$Comp
L Device:C_Small C6
U 1 1 5CC8EA02
P 10300 4500
F 0 "C6" V 10071 4500 50  0000 C CNN
F 1 "4uF7" V 10162 4500 50  0000 C CNN
F 2 "Capacitor_SMD:C_0603_1608Metric_Pad1.05x0.95mm_HandSolder" H 10300 4500 50  0001 C CNN
F 3 "~" H 10300 4500 50  0001 C CNN
	1    10300 4500
	0    1    1    0   
$EndComp
Wire Wire Line
	10200 4500 10050 4500
Wire Wire Line
	10050 4500 10050 4700
$Comp
L power:+5V #PWR023
U 1 1 5CC8FEA3
P 10050 4400
F 0 "#PWR023" H 10050 4250 50  0001 C CNN
F 1 "+5V" H 10065 4573 50  0000 C CNN
F 2 "" H 10050 4400 50  0001 C CNN
F 3 "" H 10050 4400 50  0001 C CNN
	1    10050 4400
	1    0    0    -1  
$EndComp
Wire Wire Line
	10050 4400 10050 4500
Connection ~ 10050 4500
$Comp
L power:GND #PWR024
U 1 1 5CC91214
P 10550 4550
F 0 "#PWR024" H 10550 4300 50  0001 C CNN
F 1 "GND" H 10555 4377 50  0000 C CNN
F 2 "" H 10550 4550 50  0001 C CNN
F 3 "" H 10550 4550 50  0001 C CNN
	1    10550 4550
	1    0    0    -1  
$EndComp
Wire Wire Line
	10550 4550 10550 4500
Wire Wire Line
	10550 4500 10400 4500
Text GLabel 7350 5200 3    50   Input ~ 0
MUX_O0
Text GLabel 9750 5200 3    50   Input ~ 0
MUX_O1
Text GLabel 6250 4200 1    50   Input ~ 0
MUX_S0
Text GLabel 6350 4200 1    50   Input ~ 0
MUX_S1
Text GLabel 6450 4200 1    50   Input ~ 0
MUX_S2
Text GLabel 8850 4200 1    50   Input ~ 0
MUX_S0
Text GLabel 8750 4200 1    50   Input ~ 0
MUX_S1
Text GLabel 8650 4200 1    50   Input ~ 0
MUX_S2
Text GLabel 9750 4200 1    50   Input ~ 0
KD03
Text GLabel 9650 4200 1    50   Input ~ 0
KD04
Text GLabel 9550 4200 1    50   Input ~ 0
KD05
Text GLabel 9450 4200 1    50   Input ~ 0
KD06
Text GLabel 9050 4200 1    50   Input ~ 0
KD07
Text GLabel 9150 4200 1    50   Input ~ 0
KD08
Text GLabel 9250 4200 1    50   Input ~ 0
KD09
Text GLabel 9350 4200 1    50   Input ~ 0
KD10
Text GLabel 7050 4200 1    50   Input ~ 0
KD11
Text GLabel 7150 4200 1    50   Input ~ 0
KD12
Text GLabel 7250 4200 1    50   Input ~ 0
KD13
Text GLabel 7350 4200 1    50   Input ~ 0
KD14
Text GLabel 6950 4200 1    50   Input ~ 0
KD15
Text GLabel 6850 4200 1    50   Input ~ 0
KD16
Text GLabel 6750 4200 1    50   Input ~ 0
KD17
Text GLabel 6650 4200 1    50   Input ~ 0
KD18
Text GLabel 4850 4100 2    50   Input ~ 0
MUX_S0
Text GLabel 4850 4200 2    50   Input ~ 0
MUX_S1
Text GLabel 4850 4300 2    50   Input ~ 0
MUX_S2
Text GLabel 4850 3900 2    50   Input ~ 0
MUX_O0
Text GLabel 4850 4000 2    50   Input ~ 0
MUX_O1
$Comp
L Connector:Conn_01x05_Male J1
U 1 1 5CCA7A35
P 700 3200
F 0 "J1" H 808 3481 50  0000 C CNN
F 1 "CONN-PRG" H 808 3390 50  0000 C CNN
F 2 "Connector_PinHeader_2.00mm:PinHeader_1x05_P2.00mm_Vertical" H 700 3200 50  0001 C CNN
F 3 "~" H 700 3200 50  0001 C CNN
	1    700  3200
	1    0    0    -1  
$EndComp
Text GLabel 4850 2200 2    50   Input ~ 0
SPI_SCK
Text GLabel 4850 2300 2    50   Input ~ 0
SPI_MOSI
Text GLabel 4850 2400 2    50   Input ~ 0
SPI_MISO
Text GLabel 900  3100 2    50   Input ~ 0
SPI_SCK
Text GLabel 900  3200 2    50   Input ~ 0
SPI_MOSI
Text GLabel 900  3300 2    50   Input ~ 0
SPI_MISO
$Comp
L power:GND #PWR03
U 1 1 5CCAD2DA
P 1100 3500
F 0 "#PWR03" H 1100 3250 50  0001 C CNN
F 1 "GND" H 1105 3327 50  0000 C CNN
F 2 "" H 1100 3500 50  0001 C CNN
F 3 "" H 1100 3500 50  0001 C CNN
	1    1100 3500
	1    0    0    -1  
$EndComp
Wire Wire Line
	1100 3500 1100 3400
Wire Wire Line
	1100 3400 900  3400
Text GLabel 5950 1200 2    50   Input ~ 0
SPI_SCK
$Comp
L Device:R_Small R1
U 1 1 5CCB04E8
P 5650 1200
F 0 "R1" V 5454 1200 50  0000 C CNN
F 1 "10k" V 5545 1200 50  0000 C CNN
F 2 "Resistor_SMD:R_0805_2012Metric_Pad1.15x1.40mm_HandSolder" H 5650 1200 50  0001 C CNN
F 3 "~" H 5650 1200 50  0001 C CNN
	1    5650 1200
	0    1    1    0   
$EndComp
Wire Wire Line
	5750 1200 5950 1200
$Comp
L power:GND #PWR014
U 1 1 5CCB1C49
P 5400 1300
F 0 "#PWR014" H 5400 1050 50  0001 C CNN
F 1 "GND" H 5405 1127 50  0000 C CNN
F 2 "" H 5400 1300 50  0001 C CNN
F 3 "" H 5400 1300 50  0001 C CNN
	1    5400 1300
	1    0    0    -1  
$EndComp
Wire Wire Line
	5400 1300 5400 1200
Wire Wire Line
	5400 1200 5550 1200
$Comp
L Memory_EEPROM:93CxxC U3
U 1 1 5CCB46D1
P 6950 2000
F 0 "U3" H 7100 2250 50  0000 C CNN
F 1 "M93C86" H 6700 2250 50  0000 C CNN
F 2 "Package_SO:SOIC-8_3.9x4.9mm_P1.27mm" H 6950 2000 50  0001 C CNN
F 3 "http://ww1.microchip.com/downloads/en/DeviceDoc/20001749K.pdf" H 6950 2000 50  0001 C CNN
	1    6950 2000
	1    0    0    -1  
$EndComp
Text GLabel 7350 1900 2    50   Input ~ 0
SPI_SCK
Text GLabel 7350 2000 2    50   Input ~ 0
SPI_MOSI
Text GLabel 7350 2100 2    50   Input ~ 0
SPI_MISO
Text GLabel 6250 1900 0    50   Input ~ 0
EEPROM_CS
Text GLabel 4850 2500 2    50   Input ~ 0
EEPROM_CS
$Comp
L power:+5V #PWR016
U 1 1 5CCB8330
P 6950 1700
F 0 "#PWR016" H 6950 1550 50  0001 C CNN
F 1 "+5V" H 6965 1873 50  0000 C CNN
F 2 "" H 6950 1700 50  0001 C CNN
F 3 "" H 6950 1700 50  0001 C CNN
	1    6950 1700
	1    0    0    -1  
$EndComp
$Comp
L power:GND #PWR017
U 1 1 5CCB87D9
P 6950 2400
F 0 "#PWR017" H 6950 2150 50  0001 C CNN
F 1 "GND" H 6955 2227 50  0000 C CNN
F 2 "" H 6950 2400 50  0001 C CNN
F 3 "" H 6950 2400 50  0001 C CNN
	1    6950 2400
	1    0    0    -1  
$EndComp
Wire Wire Line
	6950 2400 6950 2350
Wire Wire Line
	6950 2350 6550 2350
Wire Wire Line
	6550 2350 6550 2000
Connection ~ 6950 2350
Wire Wire Line
	6950 2350 6950 2300
$Comp
L Device:R_Small R2
U 1 1 5CCBC31C
P 6350 2150
F 0 "R2" H 6409 2196 50  0000 L CNN
F 1 "10k" H 6409 2105 50  0000 L CNN
F 2 "Resistor_SMD:R_0805_2012Metric_Pad1.15x1.40mm_HandSolder" H 6350 2150 50  0001 C CNN
F 3 "~" H 6350 2150 50  0001 C CNN
	1    6350 2150
	1    0    0    -1  
$EndComp
Wire Wire Line
	6350 2050 6350 1900
Wire Wire Line
	6350 1900 6250 1900
Wire Wire Line
	6350 1900 6550 1900
Connection ~ 6350 1900
Wire Wire Line
	6350 2250 6350 2350
Wire Wire Line
	6350 2350 6550 2350
Connection ~ 6550 2350
$Comp
L Device:C_Small C1
U 1 1 5CCC7FE2
P 2700 2300
F 0 "C1" V 2471 2300 50  0000 C CNN
F 1 "20pF" V 2562 2300 50  0000 C CNN
F 2 "Capacitor_SMD:C_0603_1608Metric_Pad1.05x0.95mm_HandSolder" H 2700 2300 50  0001 C CNN
F 3 "~" H 2700 2300 50  0001 C CNN
	1    2700 2300
	0    1    1    0   
$EndComp
$Comp
L Device:C_Small C2
U 1 1 5CCC818A
P 2700 2600
F 0 "C2" V 2471 2600 50  0000 C CNN
F 1 "20pF" V 2562 2600 50  0000 C CNN
F 2 "Capacitor_SMD:C_0603_1608Metric_Pad1.05x0.95mm_HandSolder" H 2700 2600 50  0001 C CNN
F 3 "~" H 2700 2600 50  0001 C CNN
	1    2700 2600
	0    1    1    0   
$EndComp
Wire Wire Line
	2600 2600 2500 2600
Wire Wire Line
	2500 2300 2600 2300
$Comp
L power:GND #PWR06
U 1 1 5CCCD3B6
P 2500 2700
F 0 "#PWR06" H 2500 2450 50  0001 C CNN
F 1 "GND" H 2505 2527 50  0000 C CNN
F 2 "" H 2500 2700 50  0001 C CNN
F 3 "" H 2500 2700 50  0001 C CNN
	1    2500 2700
	1    0    0    -1  
$EndComp
Wire Wire Line
	2500 2700 2500 2600
Connection ~ 2500 2600
Wire Wire Line
	2850 2900 3000 2900
Wire Wire Line
	3000 2900 3000 2800
Wire Wire Line
	3000 2800 3450 2800
Text GLabel 1750 5200 1    50   Input ~ 0
KD11
Text GLabel 1850 5200 1    50   Input ~ 0
KD12
Text GLabel 1950 5200 1    50   Input ~ 0
KD13
Text GLabel 2050 5200 1    50   Input ~ 0
KD14
Text GLabel 1300 5200 1    50   Input ~ 0
KD15
Text GLabel 1200 5200 1    50   Input ~ 0
KD16
Text GLabel 1100 5200 1    50   Input ~ 0
KD17
Text GLabel 1000 5200 1    50   Input ~ 0
KD18
Text GLabel 3450 5200 1    50   Input ~ 0
KD03
Text GLabel 3350 5200 1    50   Input ~ 0
KD04
Text GLabel 3250 5200 1    50   Input ~ 0
KD05
Text GLabel 3150 5200 1    50   Input ~ 0
KD06
Text GLabel 2450 5200 1    50   Input ~ 0
KD07
Text GLabel 2550 5200 1    50   Input ~ 0
KD08
Text GLabel 2650 5200 1    50   Input ~ 0
KD09
Text GLabel 2750 5200 1    50   Input ~ 0
KD10
$Comp
L Device:R_Pack04 RN1
U 1 1 5CCE6FFB
P 1200 5400
F 0 "RN1" H 1388 5446 50  0000 L CNN
F 1 "100k" H 1388 5355 50  0000 L CNN
F 2 "Resistor_SMD:R_Array_Convex_4x0603" V 1475 5400 50  0001 C CNN
F 3 "~" H 1200 5400 50  0001 C CNN
	1    1200 5400
	1    0    0    -1  
$EndComp
$Comp
L Device:R_Pack04 RN2
U 1 1 5CCE7B59
P 1950 5400
F 0 "RN2" H 2138 5446 50  0000 L CNN
F 1 "100k" H 2138 5355 50  0000 L CNN
F 2 "Resistor_SMD:R_Array_Convex_4x0603" V 2225 5400 50  0001 C CNN
F 3 "~" H 1950 5400 50  0001 C CNN
	1    1950 5400
	1    0    0    -1  
$EndComp
$Comp
L Device:R_Pack04 RN3
U 1 1 5CCE7D31
P 2650 5400
F 0 "RN3" H 2838 5446 50  0000 L CNN
F 1 "100k" H 2838 5355 50  0000 L CNN
F 2 "Resistor_SMD:R_Array_Convex_4x0603" V 2925 5400 50  0001 C CNN
F 3 "~" H 2650 5400 50  0001 C CNN
	1    2650 5400
	1    0    0    -1  
$EndComp
$Comp
L Device:R_Pack04 RN4
U 1 1 5CCE8227
P 3350 5400
F 0 "RN4" H 3538 5446 50  0000 L CNN
F 1 "100k" H 3538 5355 50  0000 L CNN
F 2 "Resistor_SMD:R_Array_Convex_4x0603" V 3625 5400 50  0001 C CNN
F 3 "~" H 3350 5400 50  0001 C CNN
	1    3350 5400
	1    0    0    -1  
$EndComp
Wire Wire Line
	1000 5600 1100 5600
Connection ~ 1100 5600
Wire Wire Line
	1100 5600 1200 5600
Connection ~ 1200 5600
Wire Wire Line
	1200 5600 1300 5600
Connection ~ 1300 5600
Wire Wire Line
	1300 5600 1750 5600
Connection ~ 1750 5600
Wire Wire Line
	1750 5600 1850 5600
Connection ~ 1850 5600
Wire Wire Line
	1850 5600 1950 5600
Connection ~ 1950 5600
Wire Wire Line
	1950 5600 2050 5600
Connection ~ 2050 5600
Wire Wire Line
	2050 5600 2450 5600
Connection ~ 2450 5600
Wire Wire Line
	2450 5600 2550 5600
Connection ~ 2550 5600
Wire Wire Line
	2550 5600 2650 5600
Connection ~ 2650 5600
Wire Wire Line
	2650 5600 2750 5600
Connection ~ 2750 5600
Wire Wire Line
	2750 5600 3150 5600
Connection ~ 3150 5600
Wire Wire Line
	3150 5600 3250 5600
Connection ~ 3250 5600
Wire Wire Line
	3250 5600 3350 5600
Connection ~ 3350 5600
Wire Wire Line
	3350 5600 3450 5600
$Comp
L power:GND #PWR010
U 1 1 5CCF66E4
P 3450 5750
F 0 "#PWR010" H 3450 5500 50  0001 C CNN
F 1 "GND" H 3455 5577 50  0000 C CNN
F 2 "" H 3450 5750 50  0001 C CNN
F 3 "" H 3450 5750 50  0001 C CNN
	1    3450 5750
	1    0    0    -1  
$EndComp
Wire Wire Line
	3450 5750 3450 5600
Connection ~ 3450 5600
$Comp
L Connector:Conn_01x03_Male J3
U 1 1 5CCFBD8C
P 950 4250
F 0 "J3" H 1058 4531 50  0000 C CNN
F 1 "CONN-RGB" H 1058 4440 50  0000 C CNN
F 2 "Connector_PinSocket_2.00mm:PinSocket_1x03_P2.00mm_Vertical" H 950 4250 50  0001 C CNN
F 3 "~" H 950 4250 50  0001 C CNN
	1    950  4250
	1    0    0    -1  
$EndComp
Text GLabel 4850 2800 2    50   Input ~ 0
RGB_CTRL
Text GLabel 1150 4250 2    50   Input ~ 0
RGB_CTRL
$Comp
L power:GND #PWR04
U 1 1 5CCFE10E
P 1250 4450
F 0 "#PWR04" H 1250 4200 50  0001 C CNN
F 1 "GND" H 1255 4277 50  0000 C CNN
F 2 "" H 1250 4450 50  0001 C CNN
F 3 "" H 1250 4450 50  0001 C CNN
	1    1250 4450
	1    0    0    -1  
$EndComp
Wire Wire Line
	1250 4450 1250 4350
Wire Wire Line
	1250 4350 1150 4350
$Comp
L power:+5V #PWR05
U 1 1 5CD04F29
P 1450 4100
F 0 "#PWR05" H 1450 3950 50  0001 C CNN
F 1 "+5V" H 1465 4273 50  0000 C CNN
F 2 "" H 1450 4100 50  0001 C CNN
F 3 "" H 1450 4100 50  0001 C CNN
	1    1450 4100
	1    0    0    -1  
$EndComp
Wire Wire Line
	1450 4100 1450 4150
Wire Wire Line
	1450 4150 1150 4150
Text GLabel 900  3000 2    50   Input ~ 0
EXT_RESET
Wire Wire Line
	2800 2300 3050 2300
Wire Wire Line
	2800 2600 3050 2600
Wire Wire Line
	3050 2550 3050 2600
Connection ~ 3050 2600
Wire Wire Line
	3050 2600 3450 2600
Wire Wire Line
	3050 2350 3050 2300
Connection ~ 3050 2300
Wire Wire Line
	3050 2300 3450 2300
$Comp
L power:GND #PWR0101
U 1 1 5CDB0742
P 3300 2450
F 0 "#PWR0101" H 3300 2200 50  0001 C CNN
F 1 "GND" H 3305 2277 50  0000 C CNN
F 2 "" H 3300 2450 50  0001 C CNN
F 3 "" H 3300 2450 50  0001 C CNN
	1    3300 2450
	1    0    0    -1  
$EndComp
NoConn ~ 4850 3400
NoConn ~ 4850 3000
NoConn ~ 4850 2700
NoConn ~ 4850 2600
NoConn ~ 4850 2100
Text GLabel 4550 1600 2    50   Input ~ 0
SRDATA
$Comp
L Device:R_Small R4
U 1 1 5CC594DF
P 4350 1600
F 0 "R4" V 4154 1600 50  0000 C CNN
F 1 "10k" V 4245 1600 50  0000 C CNN
F 2 "Resistor_SMD:R_0805_2012Metric_Pad1.15x1.40mm_HandSolder" H 4350 1600 50  0001 C CNN
F 3 "~" H 4350 1600 50  0001 C CNN
	1    4350 1600
	0    1    1    0   
$EndComp
Wire Wire Line
	4550 1600 4450 1600
Wire Wire Line
	4250 1600 4150 1600
$Comp
L Connector:Conn_01x04_Male J5
U 1 1 5CE78FCD
P 2050 1050
F 0 "J5" H 2022 1024 50  0000 R CNN
F 1 "Conn_01x04_Male" H 2022 933 50  0000 R CNN
F 2 "Connector_PinHeader_2.54mm:PinHeader_1x04_P2.54mm_Vertical" H 2050 1050 50  0001 C CNN
F 3 "~" H 2050 1050 50  0001 C CNN
	1    2050 1050
	-1   0    0    -1  
$EndComp
$Comp
L power:GND #PWR029
U 1 1 5CE79D3D
P 1700 1325
F 0 "#PWR029" H 1700 1075 50  0001 C CNN
F 1 "GND" H 1705 1152 50  0000 C CNN
F 2 "" H 1700 1325 50  0001 C CNN
F 3 "" H 1700 1325 50  0001 C CNN
	1    1700 1325
	1    0    0    -1  
$EndComp
Wire Wire Line
	1700 1325 1700 1250
Wire Wire Line
	1700 1250 1850 1250
$Comp
L power:+5V #PWR028
U 1 1 5CE7ACA2
P 1700 825
F 0 "#PWR028" H 1700 675 50  0001 C CNN
F 1 "+5V" H 1715 998 50  0000 C CNN
F 2 "" H 1700 825 50  0001 C CNN
F 3 "" H 1700 825 50  0001 C CNN
	1    1700 825 
	1    0    0    -1  
$EndComp
Wire Wire Line
	1700 825  1700 950 
Wire Wire Line
	1700 950  1850 950 
$Comp
L Connector:USB_B_Micro J2
U 1 1 5CE7B367
P 950 1050
F 0 "J2" H 1007 1517 50  0000 C CNN
F 1 "USB_B_Micro" H 1007 1426 50  0000 C CNN
F 2 "Connector_USB:USB_Micro-B_Molex-105017-0001" H 1100 1000 50  0001 C CNN
F 3 "~" H 1100 1000 50  0001 C CNN
	1    950  1050
	1    0    0    -1  
$EndComp
Text GLabel 1850 1050 0    50   Input ~ 0
D+
Text GLabel 1850 1150 0    50   Input ~ 0
D-
Text GLabel 1250 1150 2    50   Input ~ 0
D-
Text GLabel 1250 1050 2    50   Input ~ 0
D+
NoConn ~ 1250 1250
Wire Wire Line
	850  1450 950  1450
$Comp
L power:GND #PWR026
U 1 1 5CE7E256
P 950 1500
F 0 "#PWR026" H 950 1250 50  0001 C CNN
F 1 "GND" H 955 1327 50  0000 C CNN
F 2 "" H 950 1500 50  0001 C CNN
F 3 "" H 950 1500 50  0001 C CNN
	1    950  1500
	1    0    0    -1  
$EndComp
Wire Wire Line
	950  1500 950  1450
Connection ~ 950  1450
$Comp
L power:+5V #PWR027
U 1 1 5CE7E473
P 1350 775
F 0 "#PWR027" H 1350 625 50  0001 C CNN
F 1 "+5V" H 1365 948 50  0000 C CNN
F 2 "" H 1350 775 50  0001 C CNN
F 3 "" H 1350 775 50  0001 C CNN
	1    1350 775 
	1    0    0    -1  
$EndComp
Wire Wire Line
	1350 775  1350 850 
Wire Wire Line
	1350 850  1250 850 
$Comp
L Device:R_Small R5
U 1 1 5CE7F60F
P 2575 775
F 0 "R5" V 2771 775 50  0000 C CNN
F 1 "10k" V 2680 775 50  0000 C CNN
F 2 "Resistor_SMD:R_0805_2012Metric" H 2575 775 50  0001 C CNN
F 3 "~" H 2575 775 50  0001 C CNN
	1    2575 775 
	0    -1   -1   0   
$EndComp
$Comp
L power:GND #PWR030
U 1 1 5CE7FD78
P 2325 800
F 0 "#PWR030" H 2325 550 50  0001 C CNN
F 1 "GND" H 2330 627 50  0000 C CNN
F 2 "" H 2325 800 50  0001 C CNN
F 3 "" H 2325 800 50  0001 C CNN
	1    2325 800 
	1    0    0    -1  
$EndComp
Wire Wire Line
	2325 800  2325 775 
Wire Wire Line
	2325 775  2475 775 
$Comp
L Device:LED D1
U 1 1 5CE8036A
P 2900 775
F 0 "D1" H 2893 991 50  0000 C CNN
F 1 "LED" H 2893 900 50  0000 C CNN
F 2 "LED_SMD:LED_0603_1608Metric" H 2900 775 50  0001 C CNN
F 3 "~" H 2900 775 50  0001 C CNN
	1    2900 775 
	1    0    0    -1  
$EndComp
Wire Wire Line
	2750 775  2675 775 
$Comp
L power:+5V #PWR031
U 1 1 5CE8067A
P 3125 725
F 0 "#PWR031" H 3125 575 50  0001 C CNN
F 1 "+5V" H 3140 898 50  0000 C CNN
F 2 "" H 3125 725 50  0001 C CNN
F 3 "" H 3125 725 50  0001 C CNN
	1    3125 725 
	1    0    0    -1  
$EndComp
Wire Wire Line
	3125 725  3125 775 
Wire Wire Line
	3125 775  3050 775 
Wire Wire Line
	3150 2450 3300 2450
Wire Wire Line
	2500 2300 2500 2450
Wire Wire Line
	2950 2450 2500 2450
Connection ~ 2500 2450
Wire Wire Line
	2500 2450 2500 2600
$EndSCHEMATC
