M48
; DRILL file {KiCad 5.1.8} date Sat Dec  5 15:08:38 2020
; FORMAT={-:-/ absolute / metric / decimal}
; #@! TF.CreationDate,2020-12-05T15:08:38+01:00
; #@! TF.GenerationSoftware,Kicad,Pcbnew,5.1.8
FMAT,2
METRIC
T1C0.400
T2C1.000
T3C1.100
%
G90
G05
T1
X-6.706Y-26.924
X-6.533Y-28.687
X-5.85Y-24.0
X-5.537Y-38.252
X-5.2Y-36.5
X-4.572Y-52.07
X-4.5Y-26.55
X-4.47Y-29.566
X-3.556Y-29.058
X-3.454Y-52.019
X-3.4Y-39.827
X-3.3Y-25.9
X-2.53Y-22.972
X-2.4Y-30.4
X-1.778Y-31.445
X-1.6Y-7.15
X-1.4Y-29.9
X-1.016Y-19.812
X-0.7Y-6.15
X-0.45Y-15.65
X0.305Y-51.816
X0.305Y-52.934
X1.727Y-36.474
X1.778Y-54.508
X2.1Y-18.1
X2.438Y-31.14
X2.55Y-5.0
X2.9Y-59.2
X3.15Y-33.477
X3.454Y-29.108
X3.759Y-32.004
X4.0Y-15.95
X4.1Y-59.0
X4.115Y-34.392
X4.8Y-12.7
X4.8Y-59.8
X5.029Y-50.14
X5.08Y-18.745
X5.087Y-34.322
X5.436Y-47.549
X5.587Y-33.15
X5.7Y-35.45
X5.95Y-7.3
X6.0Y-39.7
X6.045Y-31.953
X6.1Y-27.4
X6.15Y-37.35
X6.198Y-23.673
X6.248Y-54.153
X6.3Y-10.5
X6.327Y-26.4
X6.6Y-69.7
X7.061Y-30.632
X7.2Y-35.4
X7.214Y-26.01
X7.315Y-47.549
X7.55Y-16.75
X8.15Y-8.85
X8.534Y-31.648
X8.585Y-29.108
X8.6Y-21.45
X8.6Y-69.7
X8.992Y-47.549
X9.05Y-38.6
X9.204Y-52.112
X9.363Y-33.57
X9.605Y-55.22
X9.855Y-64.821
X9.948Y-19.152
X9.957Y-32.868
X10.109Y-30.632
X10.4Y-11.95
X10.77Y-55.728
X10.8Y-31.9
X10.913Y-59.639
X11.0Y-13.0
X11.3Y-4.05
X11.3Y-5.55
X11.481Y-49.428
X11.481Y-56.642
X11.6Y-9.45
X11.7Y-36.103
X11.809Y-40.44
X11.809Y-41.49
X12.04Y-17.526
X12.1Y-22.0
X12.598Y-48.666
X12.852Y-25.857
X12.954Y-58.166
X13.005Y-61.584
X13.005Y-63.348
X13.25Y-34.1
X13.665Y-48.717
X13.95Y-35.6
X14.072Y-28.753
X14.478Y-62.535
X14.732Y-34.392
X14.757Y-64.832
X14.9Y-29.75
X14.9Y-30.85
X14.935Y-33.274
X16.0Y-71.1
X16.027Y-67.259
X17.069Y-23.927
X17.094Y-55.88
X17.12Y-25.095
X17.297Y-59.882
X17.297Y-64.832
X17.5Y-62.95
X18.425Y-50.429
X18.593Y-66.243
X19.05Y-49.124
X19.167Y-51.171
X19.202Y-29.108
X20.105Y-55.882
X20.3Y-39.35
X20.3Y-40.75
X20.31Y-42.795
X20.422Y-21.895
X20.777Y-53.696
X20.777Y-60.401
X21.082Y-64.211
X21.3Y-4.05
X21.3Y-5.55
X21.59Y-19.507
X21.6Y-1.9
X21.844Y-49.428
X22.098Y-21.336
X22.646Y-11.054
X22.758Y-68.021
X23.114Y-55.88
X23.419Y-63.043
X23.876Y-28.439
X23.885Y-47.371
X23.989Y-38.605
X23.989Y-39.701
X23.989Y-40.781
X24.028Y-16.916
X24.028Y-19.609
X24.066Y-24.502
X24.689Y-12.04
X26.0Y-42.5
X26.162Y-69.748
X26.226Y-24.329
X26.264Y-27.889
X26.33Y-30.91
X26.75Y-45.278
X26.772Y-47.244
X26.924Y-50.292
X27.051Y-32.833
X27.5Y-48.7
X27.62Y-22.26
X27.838Y-31.344
X28.0Y-42.5
X28.15Y-4.0
X28.65Y-1.15
X28.792Y-9.335
X29.019Y-11.367
X29.019Y-24.329
X29.019Y-29.146
X29.21Y-60.134
X29.21Y-62.039
X29.21Y-63.944
X29.21Y-65.849
X29.75Y-12.097
X30.05Y-6.225
X30.175Y-35.916
X30.543Y-40.45
X30.65Y-1.15
X30.65Y-2.65
X31.09Y-65.862
X31.09Y-67.754
X31.115Y-58.229
X31.115Y-60.134
X31.242Y-7.315
T2
X29.718Y-46.228
X29.718Y-48.768
X29.718Y-51.308
X29.718Y-53.848
X1.079Y-49.987
X2.032Y-72.39
X4.572Y-72.39
X7.112Y-72.39
X9.652Y-72.39
X12.192Y-72.39
X14.732Y-72.39
X17.272Y-72.39
X19.812Y-72.39
X22.352Y-72.39
X24.892Y-72.39
X27.432Y-72.39
X29.972Y-72.39
X1.079Y-6.706
X1.079Y-9.246
X1.079Y-11.786
X1.079Y-14.326
X1.079Y-16.866
X1.079Y-19.406
X1.079Y-21.946
X16.307Y-32.207
X16.307Y-34.747
X16.307Y-37.287
X16.307Y-39.827
X16.307Y-42.367
X16.307Y-44.907
X16.307Y-47.447
X16.307Y-49.987
X1.079Y-39.827
X16.307Y-1.727
X16.307Y-4.267
X16.307Y-6.807
X16.307Y-9.347
X16.307Y-11.887
X16.307Y-14.427
X16.307Y-16.967
X16.307Y-19.507
X16.307Y-22.047
T3
X-3.45Y-61.96
X-3.45Y-66.46
X3.05Y-61.96
X3.05Y-66.46
T0
M30
